('C:\\VBOXSVRELM327_project_win\\build\\ELM327_graph_APP_windows\\ELM327_graph_APP_windows.pkg',
 {'BINARY': True,
  'DATA': True,
  'EXECUTABLE': True,
  'EXTENSION': True,
  'PYMODULE': True,
  'PYSOURCE': True,
  'PYZ': False,
  'SPLASH': True,
  'SYMLINK': False},
 [('pyi-contents-directory _internal', '', 'OPTION'),
  ('PYZ-00.pyz',
   'C:\\VBOXSVRELM327_project_win\\build\\ELM327_graph_APP_windows\\PYZ-00.pyz',
   'PYZ'),
  ('struct',
   'C:\\VBOXSVRELM327_project_win\\build\\ELM327_graph_APP_windows\\localpycs\\struct.pyc',
   'PYMODULE'),
  ('pyimod01_archive',
   'C:\\VBOXSVRELM327_project_win\\build\\ELM327_graph_APP_windows\\localpycs\\pyimod01_archive.pyc',
   'PYMODULE'),
  ('pyimod02_importers',
   'C:\\VBOXSVRELM327_project_win\\build\\ELM327_graph_APP_windows\\localpycs\\pyimod02_importers.pyc',
   'PYMODULE'),
  ('pyimod03_ctypes',
   'C:\\VBOXSVRELM327_project_win\\build\\ELM327_graph_APP_windows\\localpycs\\pyimod03_ctypes.pyc',
   'PYMODULE'),
  ('pyimod04_pywin32',
   'C:\\VBOXSVRELM327_project_win\\build\\ELM327_graph_APP_windows\\localpycs\\pyimod04_pywin32.pyc',
   'PYMODULE'),
  ('pyiboot01_bootstrap',
   'C:\\Program '
   'Files\\Python312\\Lib\\site-packages\\PyInstaller\\loader\\pyiboot01_bootstrap.py',
   'PYSOURCE'),
  ('pyi_rth_inspect',
   'C:\\Program '
   'Files\\Python312\\Lib\\site-packages\\PyInstaller\\hooks\\rthooks\\pyi_rth_inspect.py',
   'PYSOURCE'),
  ('pyi_rth_pyqt5',
   'C:\\Program '
   'Files\\Python312\\Lib\\site-packages\\PyInstaller\\hooks\\rthooks\\pyi_rth_pyqt5.py',
   'PYSOURCE'),
  ('pyi_rth_pkgutil',
   'C:\\Program '
   'Files\\Python312\\Lib\\site-packages\\PyInstaller\\hooks\\rthooks\\pyi_rth_pkgutil.py',
   'PYSOURCE'),
  ('pyi_rth_multiprocessing',
   'C:\\Program '
   'Files\\Python312\\Lib\\site-packages\\PyInstaller\\hooks\\rthooks\\pyi_rth_multiprocessing.py',
   'PYSOURCE'),
  ('pyi_rth_pyqtgraph_multiprocess',
   'C:\\Program '
   'Files\\Python312\\Lib\\site-packages\\_pyinstaller_hooks_contrib\\hooks\\rthooks\\pyi_rth_pyqtgraph_multiprocess.py',
   'PYSOURCE'),
  ('ELM327_graph_APP_windows',
   'C:\\VBOXSVRELM327_project_win\\ELM327_graph_APP_windows.py',
   'PYSOURCE'),
  ('python312.dll', 'C:\\Program Files\\Python312\\python312.dll', 'BINARY'),
  ('PyQt5\\Qt5\\bin\\d3dcompiler_47.dll',
   'C:\\Program '
   'Files\\Python312\\Lib\\site-packages\\PyQt5\\Qt5\\bin\\d3dcompiler_47.dll',
   'BINARY'),
  ('PyQt5\\Qt5\\bin\\libGLESv2.dll',
   'C:\\Program '
   'Files\\Python312\\Lib\\site-packages\\PyQt5\\Qt5\\bin\\libGLESv2.dll',
   'BINARY'),
  ('PyQt5\\Qt5\\bin\\opengl32sw.dll',
   'C:\\Program '
   'Files\\Python312\\Lib\\site-packages\\PyQt5\\Qt5\\bin\\opengl32sw.dll',
   'BINARY'),
  ('PyQt5\\Qt5\\bin\\libEGL.dll',
   'C:\\Program '
   'Files\\Python312\\Lib\\site-packages\\PyQt5\\Qt5\\bin\\libEGL.dll',
   'BINARY'),
  ('PyQt5\\Qt5\\plugins\\imageformats\\qjpeg.dll',
   'C:\\Program '
   'Files\\Python312\\Lib\\site-packages\\PyQt5\\Qt5\\plugins\\imageformats\\qjpeg.dll',
   'BINARY'),
  ('PyQt5\\Qt5\\plugins\\platforms\\qwebgl.dll',
   'C:\\Program '
   'Files\\Python312\\Lib\\site-packages\\PyQt5\\Qt5\\plugins\\platforms\\qwebgl.dll',
   'BINARY'),
  ('PyQt5\\Qt5\\plugins\\platforms\\qoffscreen.dll',
   'C:\\Program '
   'Files\\Python312\\Lib\\site-packages\\PyQt5\\Qt5\\plugins\\platforms\\qoffscreen.dll',
   'BINARY'),
  ('PyQt5\\Qt5\\plugins\\imageformats\\qwbmp.dll',
   'C:\\Program '
   'Files\\Python312\\Lib\\site-packages\\PyQt5\\Qt5\\plugins\\imageformats\\qwbmp.dll',
   'BINARY'),
  ('PyQt5\\Qt5\\plugins\\imageformats\\qsvg.dll',
   'C:\\Program '
   'Files\\Python312\\Lib\\site-packages\\PyQt5\\Qt5\\plugins\\imageformats\\qsvg.dll',
   'BINARY'),
  ('PyQt5\\Qt5\\plugins\\iconengines\\qsvgicon.dll',
   'C:\\Program '
   'Files\\Python312\\Lib\\site-packages\\PyQt5\\Qt5\\plugins\\iconengines\\qsvgicon.dll',
   'BINARY'),
  ('PyQt5\\Qt5\\plugins\\imageformats\\qgif.dll',
   'C:\\Program '
   'Files\\Python312\\Lib\\site-packages\\PyQt5\\Qt5\\plugins\\imageformats\\qgif.dll',
   'BINARY'),
  ('PyQt5\\Qt5\\plugins\\imageformats\\qico.dll',
   'C:\\Program '
   'Files\\Python312\\Lib\\site-packages\\PyQt5\\Qt5\\plugins\\imageformats\\qico.dll',
   'BINARY'),
  ('PyQt5\\Qt5\\plugins\\imageformats\\qtiff.dll',
   'C:\\Program '
   'Files\\Python312\\Lib\\site-packages\\PyQt5\\Qt5\\plugins\\imageformats\\qtiff.dll',
   'BINARY'),
  ('PyQt5\\Qt5\\plugins\\platforms\\qwindows.dll',
   'C:\\Program '
   'Files\\Python312\\Lib\\site-packages\\PyQt5\\Qt5\\plugins\\platforms\\qwindows.dll',
   'BINARY'),
  ('PyQt5\\Qt5\\plugins\\platforms\\qminimal.dll',
   'C:\\Program '
   'Files\\Python312\\Lib\\site-packages\\PyQt5\\Qt5\\plugins\\platforms\\qminimal.dll',
   'BINARY'),
  ('PyQt5\\Qt5\\plugins\\generic\\qtuiotouchplugin.dll',
   'C:\\Program '
   'Files\\Python312\\Lib\\site-packages\\PyQt5\\Qt5\\plugins\\generic\\qtuiotouchplugin.dll',
   'BINARY'),
  ('PyQt5\\Qt5\\plugins\\platformthemes\\qxdgdesktopportal.dll',
   'C:\\Program '
   'Files\\Python312\\Lib\\site-packages\\PyQt5\\Qt5\\plugins\\platformthemes\\qxdgdesktopportal.dll',
   'BINARY'),
  ('PyQt5\\Qt5\\plugins\\imageformats\\qtga.dll',
   'C:\\Program '
   'Files\\Python312\\Lib\\site-packages\\PyQt5\\Qt5\\plugins\\imageformats\\qtga.dll',
   'BINARY'),
  ('PyQt5\\Qt5\\plugins\\imageformats\\qwebp.dll',
   'C:\\Program '
   'Files\\Python312\\Lib\\site-packages\\PyQt5\\Qt5\\plugins\\imageformats\\qwebp.dll',
   'BINARY'),
  ('PyQt5\\Qt5\\plugins\\imageformats\\qicns.dll',
   'C:\\Program '
   'Files\\Python312\\Lib\\site-packages\\PyQt5\\Qt5\\plugins\\imageformats\\qicns.dll',
   'BINARY'),
  ('PyQt5\\Qt5\\plugins\\styles\\qwindowsvistastyle.dll',
   'C:\\Program '
   'Files\\Python312\\Lib\\site-packages\\PyQt5\\Qt5\\plugins\\styles\\qwindowsvistastyle.dll',
   'BINARY'),
  ('select.pyd', 'C:\\Program Files\\Python312\\DLLs\\select.pyd', 'EXTENSION'),
  ('_hashlib.pyd',
   'C:\\Program Files\\Python312\\DLLs\\_hashlib.pyd',
   'EXTENSION'),
  ('_lzma.pyd', 'C:\\Program Files\\Python312\\DLLs\\_lzma.pyd', 'EXTENSION'),
  ('_bz2.pyd', 'C:\\Program Files\\Python312\\DLLs\\_bz2.pyd', 'EXTENSION'),
  ('pyexpat.pyd',
   'C:\\Program Files\\Python312\\DLLs\\pyexpat.pyd',
   'EXTENSION'),
  ('_ssl.pyd', 'C:\\Program Files\\Python312\\DLLs\\_ssl.pyd', 'EXTENSION'),
  ('unicodedata.pyd',
   'C:\\Program Files\\Python312\\DLLs\\unicodedata.pyd',
   'EXTENSION'),
  ('_decimal.pyd',
   'C:\\Program Files\\Python312\\DLLs\\_decimal.pyd',
   'EXTENSION'),
  ('_multiprocessing.pyd',
   'C:\\Program Files\\Python312\\DLLs\\_multiprocessing.pyd',
   'EXTENSION'),
  ('_socket.pyd',
   'C:\\Program Files\\Python312\\DLLs\\_socket.pyd',
   'EXTENSION'),
  ('_ctypes.pyd',
   'C:\\Program Files\\Python312\\DLLs\\_ctypes.pyd',
   'EXTENSION'),
  ('_queue.pyd', 'C:\\Program Files\\Python312\\DLLs\\_queue.pyd', 'EXTENSION'),
  ('PyQt5\\QtTest.pyd',
   'C:\\Program Files\\Python312\\Lib\\site-packages\\PyQt5\\QtTest.pyd',
   'EXTENSION'),
  ('PyQt5\\QtSvg.pyd',
   'C:\\Program Files\\Python312\\Lib\\site-packages\\PyQt5\\QtSvg.pyd',
   'EXTENSION'),
  ('PyQt5\\sip.cp312-win_amd64.pyd',
   'C:\\Program '
   'Files\\Python312\\Lib\\site-packages\\PyQt5\\sip.cp312-win_amd64.pyd',
   'EXTENSION'),
  ('_elementtree.pyd',
   'C:\\Program Files\\Python312\\DLLs\\_elementtree.pyd',
   'EXTENSION'),
  ('_wmi.pyd', 'C:\\Program Files\\Python312\\DLLs\\_wmi.pyd', 'EXTENSION'),
  ('numpy\\_core\\_multiarray_umath.cp312-win_amd64.pyd',
   'C:\\Program '
   'Files\\Python312\\Lib\\site-packages\\numpy\\_core\\_multiarray_umath.cp312-win_amd64.pyd',
   'EXTENSION'),
  ('_overlapped.pyd',
   'C:\\Program Files\\Python312\\DLLs\\_overlapped.pyd',
   'EXTENSION'),
  ('_asyncio.pyd',
   'C:\\Program Files\\Python312\\DLLs\\_asyncio.pyd',
   'EXTENSION'),
  ('numpy\\linalg\\_umath_linalg.cp312-win_amd64.pyd',
   'C:\\Program '
   'Files\\Python312\\Lib\\site-packages\\numpy\\linalg\\_umath_linalg.cp312-win_amd64.pyd',
   'EXTENSION'),
  ('numpy\\_core\\_multiarray_tests.cp312-win_amd64.pyd',
   'C:\\Program '
   'Files\\Python312\\Lib\\site-packages\\numpy\\_core\\_multiarray_tests.cp312-win_amd64.pyd',
   'EXTENSION'),
  ('numpy\\random\\mtrand.cp312-win_amd64.pyd',
   'C:\\Program '
   'Files\\Python312\\Lib\\site-packages\\numpy\\random\\mtrand.cp312-win_amd64.pyd',
   'EXTENSION'),
  ('numpy\\random\\_sfc64.cp312-win_amd64.pyd',
   'C:\\Program '
   'Files\\Python312\\Lib\\site-packages\\numpy\\random\\_sfc64.cp312-win_amd64.pyd',
   'EXTENSION'),
  ('numpy\\random\\_philox.cp312-win_amd64.pyd',
   'C:\\Program '
   'Files\\Python312\\Lib\\site-packages\\numpy\\random\\_philox.cp312-win_amd64.pyd',
   'EXTENSION'),
  ('numpy\\random\\_pcg64.cp312-win_amd64.pyd',
   'C:\\Program '
   'Files\\Python312\\Lib\\site-packages\\numpy\\random\\_pcg64.cp312-win_amd64.pyd',
   'EXTENSION'),
  ('numpy\\random\\_mt19937.cp312-win_amd64.pyd',
   'C:\\Program '
   'Files\\Python312\\Lib\\site-packages\\numpy\\random\\_mt19937.cp312-win_amd64.pyd',
   'EXTENSION'),
  ('numpy\\random\\bit_generator.cp312-win_amd64.pyd',
   'C:\\Program '
   'Files\\Python312\\Lib\\site-packages\\numpy\\random\\bit_generator.cp312-win_amd64.pyd',
   'EXTENSION'),
  ('numpy\\random\\_generator.cp312-win_amd64.pyd',
   'C:\\Program '
   'Files\\Python312\\Lib\\site-packages\\numpy\\random\\_generator.cp312-win_amd64.pyd',
   'EXTENSION'),
  ('numpy\\random\\_bounded_integers.cp312-win_amd64.pyd',
   'C:\\Program '
   'Files\\Python312\\Lib\\site-packages\\numpy\\random\\_bounded_integers.cp312-win_amd64.pyd',
   'EXTENSION'),
  ('numpy\\random\\_common.cp312-win_amd64.pyd',
   'C:\\Program '
   'Files\\Python312\\Lib\\site-packages\\numpy\\random\\_common.cp312-win_amd64.pyd',
   'EXTENSION'),
  ('numpy\\fft\\_pocketfft_umath.cp312-win_amd64.pyd',
   'C:\\Program '
   'Files\\Python312\\Lib\\site-packages\\numpy\\fft\\_pocketfft_umath.cp312-win_amd64.pyd',
   'EXTENSION'),
  ('PyQt5\\QtGui.pyd',
   'C:\\Program Files\\Python312\\Lib\\site-packages\\PyQt5\\QtGui.pyd',
   'EXTENSION'),
  ('PyQt5\\QtCore.pyd',
   'C:\\Program Files\\Python312\\Lib\\site-packages\\PyQt5\\QtCore.pyd',
   'EXTENSION'),
  ('PyQt5\\QtWidgets.pyd',
   'C:\\Program Files\\Python312\\Lib\\site-packages\\PyQt5\\QtWidgets.pyd',
   'EXTENSION'),
  ('VCRUNTIME140.dll',
   'C:\\Program Files\\Python312\\VCRUNTIME140.dll',
   'BINARY'),
  ('PyQt5\\Qt5\\bin\\MSVCP140.dll',
   'C:\\Program '
   'Files\\Python312\\Lib\\site-packages\\PyQt5\\Qt5\\bin\\MSVCP140.dll',
   'BINARY'),
  ('PyQt5\\Qt5\\bin\\VCRUNTIME140.dll',
   'C:\\Program '
   'Files\\Python312\\Lib\\site-packages\\PyQt5\\Qt5\\bin\\VCRUNTIME140.dll',
   'BINARY'),
  ('PyQt5\\Qt5\\bin\\VCRUNTIME140_1.dll',
   'C:\\Program '
   'Files\\Python312\\Lib\\site-packages\\PyQt5\\Qt5\\bin\\VCRUNTIME140_1.dll',
   'BINARY'),
  ('PyQt5\\Qt5\\bin\\Qt5Gui.dll',
   'C:\\Program '
   'Files\\Python312\\Lib\\site-packages\\PyQt5\\Qt5\\bin\\Qt5Gui.dll',
   'BINARY'),
  ('PyQt5\\Qt5\\bin\\Qt5Core.dll',
   'C:\\Program '
   'Files\\Python312\\Lib\\site-packages\\PyQt5\\Qt5\\bin\\Qt5Core.dll',
   'BINARY'),
  ('PyQt5\\Qt5\\bin\\Qt5Network.dll',
   'C:\\Program '
   'Files\\Python312\\Lib\\site-packages\\PyQt5\\Qt5\\bin\\Qt5Network.dll',
   'BINARY'),
  ('PyQt5\\Qt5\\bin\\Qt5WebSockets.dll',
   'C:\\Program '
   'Files\\Python312\\Lib\\site-packages\\PyQt5\\Qt5\\bin\\Qt5WebSockets.dll',
   'BINARY'),
  ('PyQt5\\Qt5\\bin\\Qt5Quick.dll',
   'C:\\Program '
   'Files\\Python312\\Lib\\site-packages\\PyQt5\\Qt5\\bin\\Qt5Quick.dll',
   'BINARY'),
  ('PyQt5\\Qt5\\bin\\Qt5Svg.dll',
   'C:\\Program '
   'Files\\Python312\\Lib\\site-packages\\PyQt5\\Qt5\\bin\\Qt5Svg.dll',
   'BINARY'),
  ('VCRUNTIME140_1.dll',
   'C:\\Program Files\\Python312\\VCRUNTIME140_1.dll',
   'BINARY'),
  ('PyQt5\\Qt5\\bin\\Qt5DBus.dll',
   'C:\\Program '
   'Files\\Python312\\Lib\\site-packages\\PyQt5\\Qt5\\bin\\Qt5DBus.dll',
   'BINARY'),
  ('PyQt5\\Qt5\\bin\\Qt5Widgets.dll',
   'C:\\Program '
   'Files\\Python312\\Lib\\site-packages\\PyQt5\\Qt5\\bin\\Qt5Widgets.dll',
   'BINARY'),
  ('libcrypto-3.dll',
   'C:\\Program Files\\Python312\\DLLs\\libcrypto-3.dll',
   'BINARY'),
  ('libssl-3.dll',
   'C:\\Program Files\\Python312\\DLLs\\libssl-3.dll',
   'BINARY'),
  ('libffi-8.dll',
   'C:\\Program Files\\Python312\\DLLs\\libffi-8.dll',
   'BINARY'),
  ('PyQt5\\Qt5\\bin\\Qt5Test.dll',
   'C:\\Program '
   'Files\\Python312\\Lib\\site-packages\\PyQt5\\Qt5\\bin\\Qt5Test.dll',
   'BINARY'),
  ('python3.dll', 'C:\\Program Files\\Python312\\python3.dll', 'BINARY'),
  ('numpy.libs\\msvcp140-8021418012832a07a8ca5105a33b1086.dll',
   'C:\\Program '
   'Files\\Python312\\Lib\\site-packages\\numpy.libs\\msvcp140-8021418012832a07a8ca5105a33b1086.dll',
   'BINARY'),
  ('numpy.libs\\libscipy_openblas64_-fb1711452d4d8cee9f276fd1449ee5c7.dll',
   'C:\\Program '
   'Files\\Python312\\Lib\\site-packages\\numpy.libs\\libscipy_openblas64_-fb1711452d4d8cee9f276fd1449ee5c7.dll',
   'BINARY'),
  ('PyQt5\\Qt5\\bin\\MSVCP140_1.dll',
   'C:\\Program '
   'Files\\Python312\\Lib\\site-packages\\PyQt5\\Qt5\\bin\\MSVCP140_1.dll',
   'BINARY'),
  ('PyQt5\\Qt5\\bin\\Qt5Qml.dll',
   'C:\\Program '
   'Files\\Python312\\Lib\\site-packages\\PyQt5\\Qt5\\bin\\Qt5Qml.dll',
   'BINARY'),
  ('PyQt5\\Qt5\\bin\\Qt5QmlModels.dll',
   'C:\\Program '
   'Files\\Python312\\Lib\\site-packages\\PyQt5\\Qt5\\bin\\Qt5QmlModels.dll',
   'BINARY'),
  ('base_library.zip',
   'C:\\VBOXSVRELM327_project_win\\build\\ELM327_graph_APP_windows\\base_library.zip',
   'DATA'),
  ('PyQt5\\uic\\widget-plugins\\qscintilla.py',
   'C:\\Program '
   'Files\\Python312\\Lib\\site-packages\\PyQt5\\uic\\widget-plugins\\qscintilla.py',
   'DATA'),
  ('PyQt5\\uic\\widget-plugins\\qtwebkit.py',
   'C:\\Program '
   'Files\\Python312\\Lib\\site-packages\\PyQt5\\uic\\widget-plugins\\qtwebkit.py',
   'DATA'),
  ('PyQt5\\uic\\widget-plugins\\qtwebenginewidgets.py',
   'C:\\Program '
   'Files\\Python312\\Lib\\site-packages\\PyQt5\\uic\\widget-plugins\\qtwebenginewidgets.py',
   'DATA'),
  ('PyQt5\\uic\\widget-plugins\\qaxcontainer.py',
   'C:\\Program '
   'Files\\Python312\\Lib\\site-packages\\PyQt5\\uic\\widget-plugins\\qaxcontainer.py',
   'DATA'),
  ('PyQt5\\uic\\widget-plugins\\qtquickwidgets.py',
   'C:\\Program '
   'Files\\Python312\\Lib\\site-packages\\PyQt5\\uic\\widget-plugins\\qtquickwidgets.py',
   'DATA'),
  ('PyQt5\\uic\\widget-plugins\\qtprintsupport.py',
   'C:\\Program '
   'Files\\Python312\\Lib\\site-packages\\PyQt5\\uic\\widget-plugins\\qtprintsupport.py',
   'DATA'),
  ('PyQt5\\uic\\widget-plugins\\qtcharts.py',
   'C:\\Program '
   'Files\\Python312\\Lib\\site-packages\\PyQt5\\uic\\widget-plugins\\qtcharts.py',
   'DATA'),
  ('PyQt5\\Qt5\\translations\\qt_fr.qm',
   'C:\\Program '
   'Files\\Python312\\Lib\\site-packages\\PyQt5\\Qt5\\translations\\qt_fr.qm',
   'DATA'),
  ('PyQt5\\Qt5\\translations\\qtbase_bg.qm',
   'C:\\Program '
   'Files\\Python312\\Lib\\site-packages\\PyQt5\\Qt5\\translations\\qtbase_bg.qm',
   'DATA'),
  ('PyQt5\\Qt5\\translations\\qt_help_ca.qm',
   'C:\\Program '
   'Files\\Python312\\Lib\\site-packages\\PyQt5\\Qt5\\translations\\qt_help_ca.qm',
   'DATA'),
  ('PyQt5\\Qt5\\translations\\qt_lv.qm',
   'C:\\Program '
   'Files\\Python312\\Lib\\site-packages\\PyQt5\\Qt5\\translations\\qt_lv.qm',
   'DATA'),
  ('PyQt5\\Qt5\\translations\\qt_ja.qm',
   'C:\\Program '
   'Files\\Python312\\Lib\\site-packages\\PyQt5\\Qt5\\translations\\qt_ja.qm',
   'DATA'),
  ('PyQt5\\Qt5\\translations\\qtbase_tr.qm',
   'C:\\Program '
   'Files\\Python312\\Lib\\site-packages\\PyQt5\\Qt5\\translations\\qtbase_tr.qm',
   'DATA'),
  ('PyQt5\\Qt5\\translations\\qt_help_cs.qm',
   'C:\\Program '
   'Files\\Python312\\Lib\\site-packages\\PyQt5\\Qt5\\translations\\qt_help_cs.qm',
   'DATA'),
  ('PyQt5\\Qt5\\translations\\qt_help_zh_CN.qm',
   'C:\\Program '
   'Files\\Python312\\Lib\\site-packages\\PyQt5\\Qt5\\translations\\qt_help_zh_CN.qm',
   'DATA'),
  ('PyQt5\\Qt5\\translations\\qtbase_en.qm',
   'C:\\Program '
   'Files\\Python312\\Lib\\site-packages\\PyQt5\\Qt5\\translations\\qtbase_en.qm',
   'DATA'),
  ('PyQt5\\Qt5\\translations\\qtbase_he.qm',
   'C:\\Program '
   'Files\\Python312\\Lib\\site-packages\\PyQt5\\Qt5\\translations\\qtbase_he.qm',
   'DATA'),
  ('PyQt5\\Qt5\\translations\\qtbase_ar.qm',
   'C:\\Program '
   'Files\\Python312\\Lib\\site-packages\\PyQt5\\Qt5\\translations\\qtbase_ar.qm',
   'DATA'),
  ('PyQt5\\Qt5\\translations\\qt_fa.qm',
   'C:\\Program '
   'Files\\Python312\\Lib\\site-packages\\PyQt5\\Qt5\\translations\\qt_fa.qm',
   'DATA'),
  ('PyQt5\\Qt5\\translations\\qtbase_de.qm',
   'C:\\Program '
   'Files\\Python312\\Lib\\site-packages\\PyQt5\\Qt5\\translations\\qtbase_de.qm',
   'DATA'),
  ('PyQt5\\Qt5\\translations\\qt_help_ko.qm',
   'C:\\Program '
   'Files\\Python312\\Lib\\site-packages\\PyQt5\\Qt5\\translations\\qt_help_ko.qm',
   'DATA'),
  ('PyQt5\\Qt5\\translations\\qt_help_gl.qm',
   'C:\\Program '
   'Files\\Python312\\Lib\\site-packages\\PyQt5\\Qt5\\translations\\qt_help_gl.qm',
   'DATA'),
  ('PyQt5\\Qt5\\translations\\qt_tr.qm',
   'C:\\Program '
   'Files\\Python312\\Lib\\site-packages\\PyQt5\\Qt5\\translations\\qt_tr.qm',
   'DATA'),
  ('PyQt5\\Qt5\\translations\\qtbase_it.qm',
   'C:\\Program '
   'Files\\Python312\\Lib\\site-packages\\PyQt5\\Qt5\\translations\\qtbase_it.qm',
   'DATA'),
  ('PyQt5\\Qt5\\translations\\qt_sk.qm',
   'C:\\Program '
   'Files\\Python312\\Lib\\site-packages\\PyQt5\\Qt5\\translations\\qt_sk.qm',
   'DATA'),
  ('PyQt5\\Qt5\\translations\\qt_help_uk.qm',
   'C:\\Program '
   'Files\\Python312\\Lib\\site-packages\\PyQt5\\Qt5\\translations\\qt_help_uk.qm',
   'DATA'),
  ('PyQt5\\Qt5\\translations\\qtbase_da.qm',
   'C:\\Program '
   'Files\\Python312\\Lib\\site-packages\\PyQt5\\Qt5\\translations\\qtbase_da.qm',
   'DATA'),
  ('PyQt5\\Qt5\\translations\\qt_help_it.qm',
   'C:\\Program '
   'Files\\Python312\\Lib\\site-packages\\PyQt5\\Qt5\\translations\\qt_help_it.qm',
   'DATA'),
  ('PyQt5\\Qt5\\translations\\qt_en.qm',
   'C:\\Program '
   'Files\\Python312\\Lib\\site-packages\\PyQt5\\Qt5\\translations\\qt_en.qm',
   'DATA'),
  ('PyQt5\\Qt5\\translations\\qtbase_fr.qm',
   'C:\\Program '
   'Files\\Python312\\Lib\\site-packages\\PyQt5\\Qt5\\translations\\qtbase_fr.qm',
   'DATA'),
  ('PyQt5\\Qt5\\translations\\qt_zh_CN.qm',
   'C:\\Program '
   'Files\\Python312\\Lib\\site-packages\\PyQt5\\Qt5\\translations\\qt_zh_CN.qm',
   'DATA'),
  ('PyQt5\\Qt5\\translations\\qtbase_ja.qm',
   'C:\\Program '
   'Files\\Python312\\Lib\\site-packages\\PyQt5\\Qt5\\translations\\qtbase_ja.qm',
   'DATA'),
  ('PyQt5\\Qt5\\translations\\qt_bg.qm',
   'C:\\Program '
   'Files\\Python312\\Lib\\site-packages\\PyQt5\\Qt5\\translations\\qt_bg.qm',
   'DATA'),
  ('PyQt5\\Qt5\\translations\\qt_help_zh_TW.qm',
   'C:\\Program '
   'Files\\Python312\\Lib\\site-packages\\PyQt5\\Qt5\\translations\\qt_help_zh_TW.qm',
   'DATA'),
  ('PyQt5\\Qt5\\translations\\qt_help_fr.qm',
   'C:\\Program '
   'Files\\Python312\\Lib\\site-packages\\PyQt5\\Qt5\\translations\\qt_help_fr.qm',
   'DATA'),
  ('PyQt5\\Qt5\\translations\\qt_help_ja.qm',
   'C:\\Program '
   'Files\\Python312\\Lib\\site-packages\\PyQt5\\Qt5\\translations\\qt_help_ja.qm',
   'DATA'),
  ('PyQt5\\Qt5\\translations\\qt_fi.qm',
   'C:\\Program '
   'Files\\Python312\\Lib\\site-packages\\PyQt5\\Qt5\\translations\\qt_fi.qm',
   'DATA'),
  ('PyQt5\\Qt5\\translations\\qtbase_ru.qm',
   'C:\\Program '
   'Files\\Python312\\Lib\\site-packages\\PyQt5\\Qt5\\translations\\qtbase_ru.qm',
   'DATA'),
  ('PyQt5\\Qt5\\translations\\qt_zh_TW.qm',
   'C:\\Program '
   'Files\\Python312\\Lib\\site-packages\\PyQt5\\Qt5\\translations\\qt_zh_TW.qm',
   'DATA'),
  ('PyQt5\\Qt5\\translations\\qtbase_uk.qm',
   'C:\\Program '
   'Files\\Python312\\Lib\\site-packages\\PyQt5\\Qt5\\translations\\qtbase_uk.qm',
   'DATA'),
  ('PyQt5\\Qt5\\translations\\qtbase_es.qm',
   'C:\\Program '
   'Files\\Python312\\Lib\\site-packages\\PyQt5\\Qt5\\translations\\qtbase_es.qm',
   'DATA'),
  ('PyQt5\\Qt5\\translations\\qtbase_zh_TW.qm',
   'C:\\Program '
   'Files\\Python312\\Lib\\site-packages\\PyQt5\\Qt5\\translations\\qtbase_zh_TW.qm',
   'DATA'),
  ('PyQt5\\Qt5\\translations\\qt_ca.qm',
   'C:\\Program '
   'Files\\Python312\\Lib\\site-packages\\PyQt5\\Qt5\\translations\\qt_ca.qm',
   'DATA'),
  ('PyQt5\\Qt5\\translations\\qt_help_sk.qm',
   'C:\\Program '
   'Files\\Python312\\Lib\\site-packages\\PyQt5\\Qt5\\translations\\qt_help_sk.qm',
   'DATA'),
  ('PyQt5\\Qt5\\translations\\qt_help_ru.qm',
   'C:\\Program '
   'Files\\Python312\\Lib\\site-packages\\PyQt5\\Qt5\\translations\\qt_help_ru.qm',
   'DATA'),
  ('PyQt5\\Qt5\\translations\\qtbase_ca.qm',
   'C:\\Program '
   'Files\\Python312\\Lib\\site-packages\\PyQt5\\Qt5\\translations\\qtbase_ca.qm',
   'DATA'),
  ('PyQt5\\Qt5\\translations\\qt_lt.qm',
   'C:\\Program '
   'Files\\Python312\\Lib\\site-packages\\PyQt5\\Qt5\\translations\\qt_lt.qm',
   'DATA'),
  ('PyQt5\\Qt5\\translations\\qt_gd.qm',
   'C:\\Program '
   'Files\\Python312\\Lib\\site-packages\\PyQt5\\Qt5\\translations\\qt_gd.qm',
   'DATA'),
  ('PyQt5\\Qt5\\translations\\qt_help_en.qm',
   'C:\\Program '
   'Files\\Python312\\Lib\\site-packages\\PyQt5\\Qt5\\translations\\qt_help_en.qm',
   'DATA'),
  ('PyQt5\\Qt5\\translations\\qt_gl.qm',
   'C:\\Program '
   'Files\\Python312\\Lib\\site-packages\\PyQt5\\Qt5\\translations\\qt_gl.qm',
   'DATA'),
  ('PyQt5\\Qt5\\translations\\qt_it.qm',
   'C:\\Program '
   'Files\\Python312\\Lib\\site-packages\\PyQt5\\Qt5\\translations\\qt_it.qm',
   'DATA'),
  ('PyQt5\\Qt5\\translations\\qtbase_cs.qm',
   'C:\\Program '
   'Files\\Python312\\Lib\\site-packages\\PyQt5\\Qt5\\translations\\qtbase_cs.qm',
   'DATA'),
  ('PyQt5\\Qt5\\translations\\qt_hu.qm',
   'C:\\Program '
   'Files\\Python312\\Lib\\site-packages\\PyQt5\\Qt5\\translations\\qt_hu.qm',
   'DATA'),
  ('PyQt5\\Qt5\\translations\\qt_pt.qm',
   'C:\\Program '
   'Files\\Python312\\Lib\\site-packages\\PyQt5\\Qt5\\translations\\qt_pt.qm',
   'DATA'),
  ('PyQt5\\Qt5\\translations\\qt_help_sl.qm',
   'C:\\Program '
   'Files\\Python312\\Lib\\site-packages\\PyQt5\\Qt5\\translations\\qt_help_sl.qm',
   'DATA'),
  ('PyQt5\\Qt5\\translations\\qt_uk.qm',
   'C:\\Program '
   'Files\\Python312\\Lib\\site-packages\\PyQt5\\Qt5\\translations\\qt_uk.qm',
   'DATA'),
  ('PyQt5\\Qt5\\translations\\qt_help_es.qm',
   'C:\\Program '
   'Files\\Python312\\Lib\\site-packages\\PyQt5\\Qt5\\translations\\qt_help_es.qm',
   'DATA'),
  ('PyQt5\\Qt5\\translations\\qt_he.qm',
   'C:\\Program '
   'Files\\Python312\\Lib\\site-packages\\PyQt5\\Qt5\\translations\\qt_he.qm',
   'DATA'),
  ('PyQt5\\Qt5\\translations\\qt_help_hu.qm',
   'C:\\Program '
   'Files\\Python312\\Lib\\site-packages\\PyQt5\\Qt5\\translations\\qt_help_hu.qm',
   'DATA'),
  ('PyQt5\\Qt5\\translations\\qt_sv.qm',
   'C:\\Program '
   'Files\\Python312\\Lib\\site-packages\\PyQt5\\Qt5\\translations\\qt_sv.qm',
   'DATA'),
  ('PyQt5\\Qt5\\translations\\qtbase_hu.qm',
   'C:\\Program '
   'Files\\Python312\\Lib\\site-packages\\PyQt5\\Qt5\\translations\\qtbase_hu.qm',
   'DATA'),
  ('PyQt5\\Qt5\\translations\\qt_da.qm',
   'C:\\Program '
   'Files\\Python312\\Lib\\site-packages\\PyQt5\\Qt5\\translations\\qt_da.qm',
   'DATA'),
  ('PyQt5\\Qt5\\translations\\qtbase_pl.qm',
   'C:\\Program '
   'Files\\Python312\\Lib\\site-packages\\PyQt5\\Qt5\\translations\\qtbase_pl.qm',
   'DATA'),
  ('PyQt5\\Qt5\\translations\\qt_help_ar.qm',
   'C:\\Program '
   'Files\\Python312\\Lib\\site-packages\\PyQt5\\Qt5\\translations\\qt_help_ar.qm',
   'DATA'),
  ('PyQt5\\Qt5\\translations\\qt_de.qm',
   'C:\\Program '
   'Files\\Python312\\Lib\\site-packages\\PyQt5\\Qt5\\translations\\qt_de.qm',
   'DATA'),
  ('PyQt5\\Qt5\\translations\\qt_ru.qm',
   'C:\\Program '
   'Files\\Python312\\Lib\\site-packages\\PyQt5\\Qt5\\translations\\qt_ru.qm',
   'DATA'),
  ('PyQt5\\Qt5\\translations\\qtbase_gd.qm',
   'C:\\Program '
   'Files\\Python312\\Lib\\site-packages\\PyQt5\\Qt5\\translations\\qtbase_gd.qm',
   'DATA'),
  ('PyQt5\\Qt5\\translations\\qt_ar.qm',
   'C:\\Program '
   'Files\\Python312\\Lib\\site-packages\\PyQt5\\Qt5\\translations\\qt_ar.qm',
   'DATA'),
  ('PyQt5\\Qt5\\translations\\qt_help_de.qm',
   'C:\\Program '
   'Files\\Python312\\Lib\\site-packages\\PyQt5\\Qt5\\translations\\qt_help_de.qm',
   'DATA'),
  ('PyQt5\\Qt5\\translations\\qtbase_fi.qm',
   'C:\\Program '
   'Files\\Python312\\Lib\\site-packages\\PyQt5\\Qt5\\translations\\qtbase_fi.qm',
   'DATA'),
  ('PyQt5\\Qt5\\translations\\qtbase_sk.qm',
   'C:\\Program '
   'Files\\Python312\\Lib\\site-packages\\PyQt5\\Qt5\\translations\\qtbase_sk.qm',
   'DATA'),
  ('PyQt5\\Qt5\\translations\\qt_cs.qm',
   'C:\\Program '
   'Files\\Python312\\Lib\\site-packages\\PyQt5\\Qt5\\translations\\qt_cs.qm',
   'DATA'),
  ('PyQt5\\Qt5\\translations\\qtbase_ko.qm',
   'C:\\Program '
   'Files\\Python312\\Lib\\site-packages\\PyQt5\\Qt5\\translations\\qtbase_ko.qm',
   'DATA'),
  ('PyQt5\\Qt5\\translations\\qt_sl.qm',
   'C:\\Program '
   'Files\\Python312\\Lib\\site-packages\\PyQt5\\Qt5\\translations\\qt_sl.qm',
   'DATA'),
  ('PyQt5\\Qt5\\translations\\qt_pl.qm',
   'C:\\Program '
   'Files\\Python312\\Lib\\site-packages\\PyQt5\\Qt5\\translations\\qt_pl.qm',
   'DATA'),
  ('PyQt5\\Qt5\\translations\\qtbase_lv.qm',
   'C:\\Program '
   'Files\\Python312\\Lib\\site-packages\\PyQt5\\Qt5\\translations\\qtbase_lv.qm',
   'DATA'),
  ('PyQt5\\Qt5\\translations\\qt_es.qm',
   'C:\\Program '
   'Files\\Python312\\Lib\\site-packages\\PyQt5\\Qt5\\translations\\qt_es.qm',
   'DATA'),
  ('PyQt5\\Qt5\\translations\\qt_ko.qm',
   'C:\\Program '
   'Files\\Python312\\Lib\\site-packages\\PyQt5\\Qt5\\translations\\qt_ko.qm',
   'DATA'),
  ('PyQt5\\Qt5\\translations\\qt_help_pl.qm',
   'C:\\Program '
   'Files\\Python312\\Lib\\site-packages\\PyQt5\\Qt5\\translations\\qt_help_pl.qm',
   'DATA'),
  ('PyQt5\\Qt5\\translations\\qt_help_tr.qm',
   'C:\\Program '
   'Files\\Python312\\Lib\\site-packages\\PyQt5\\Qt5\\translations\\qt_help_tr.qm',
   'DATA'),
  ('PyQt5\\Qt5\\translations\\qt_help_bg.qm',
   'C:\\Program '
   'Files\\Python312\\Lib\\site-packages\\PyQt5\\Qt5\\translations\\qt_help_bg.qm',
   'DATA'),
  ('PyQt5\\Qt5\\translations\\qt_help_da.qm',
   'C:\\Program '
   'Files\\Python312\\Lib\\site-packages\\PyQt5\\Qt5\\translations\\qt_help_da.qm',
   'DATA'),
  ('pyqtgraph\\colors\\maps\\CET-CBTL1.csv',
   'C:\\Program '
   'Files\\Python312\\Lib\\site-packages\\pyqtgraph\\colors\\maps\\CET-CBTL1.csv',
   'DATA'),
  ('pyqtgraph\\colors\\maps\\CET-L7.csv',
   'C:\\Program '
   'Files\\Python312\\Lib\\site-packages\\pyqtgraph\\colors\\maps\\CET-L7.csv',
   'DATA'),
  ('pyqtgraph\\colors\\maps\\turbo.csv',
   'C:\\Program '
   'Files\\Python312\\Lib\\site-packages\\pyqtgraph\\colors\\maps\\turbo.csv',
   'DATA'),
  ('pyqtgraph\\colors\\maps\\CET-L19.csv',
   'C:\\Program '
   'Files\\Python312\\Lib\\site-packages\\pyqtgraph\\colors\\maps\\CET-L19.csv',
   'DATA'),
  ('pyqtgraph\\icons\\peegee\\peegee.svg',
   'C:\\Program '
   'Files\\Python312\\Lib\\site-packages\\pyqtgraph\\icons\\peegee\\peegee.svg',
   'DATA'),
  ('pyqtgraph\\colors\\maps\\CET-D4.csv',
   'C:\\Program '
   'Files\\Python312\\Lib\\site-packages\\pyqtgraph\\colors\\maps\\CET-D4.csv',
   'DATA'),
  ('pyqtgraph\\colors\\maps\\CET-C6.csv',
   'C:\\Program '
   'Files\\Python312\\Lib\\site-packages\\pyqtgraph\\colors\\maps\\CET-C6.csv',
   'DATA'),
  ('pyqtgraph\\colors\\maps\\CET-L1.csv',
   'C:\\Program '
   'Files\\Python312\\Lib\\site-packages\\pyqtgraph\\colors\\maps\\CET-L1.csv',
   'DATA'),
  ('pyqtgraph\\colors\\maps\\CET-CBTC2.csv',
   'C:\\Program '
   'Files\\Python312\\Lib\\site-packages\\pyqtgraph\\colors\\maps\\CET-CBTC2.csv',
   'DATA'),
  ('pyqtgraph\\colors\\maps\\CET-D2.csv',
   'C:\\Program '
   'Files\\Python312\\Lib\\site-packages\\pyqtgraph\\colors\\maps\\CET-D2.csv',
   'DATA'),
  ('pyqtgraph\\colors\\maps\\CET-D1A.csv',
   'C:\\Program '
   'Files\\Python312\\Lib\\site-packages\\pyqtgraph\\colors\\maps\\CET-D1A.csv',
   'DATA'),
  ('pyqtgraph\\colors\\maps\\CET-D1.csv',
   'C:\\Program '
   'Files\\Python312\\Lib\\site-packages\\pyqtgraph\\colors\\maps\\CET-D1.csv',
   'DATA'),
  ('pyqtgraph\\icons\\peegee\\peegee_128px.png',
   'C:\\Program '
   'Files\\Python312\\Lib\\site-packages\\pyqtgraph\\icons\\peegee\\peegee_128px.png',
   'DATA'),
  ('pyqtgraph\\colors\\maps\\CET-R1.csv',
   'C:\\Program '
   'Files\\Python312\\Lib\\site-packages\\pyqtgraph\\colors\\maps\\CET-R1.csv',
   'DATA'),
  ('pyqtgraph\\colors\\maps\\CC-BY license - applies to CET color map data.txt',
   'C:\\Program '
   'Files\\Python312\\Lib\\site-packages\\pyqtgraph\\colors\\maps\\CC-BY '
   'license - applies to CET color map data.txt',
   'DATA'),
  ('pyqtgraph\\colors\\maps\\CET-L8.csv',
   'C:\\Program '
   'Files\\Python312\\Lib\\site-packages\\pyqtgraph\\colors\\maps\\CET-L8.csv',
   'DATA'),
  ('pyqtgraph\\colors\\maps\\CET-CBD1.csv',
   'C:\\Program '
   'Files\\Python312\\Lib\\site-packages\\pyqtgraph\\colors\\maps\\CET-CBD1.csv',
   'DATA'),
  ('pyqtgraph\\colors\\maps\\CET-C6s.csv',
   'C:\\Program '
   'Files\\Python312\\Lib\\site-packages\\pyqtgraph\\colors\\maps\\CET-C6s.csv',
   'DATA'),
  ('pyqtgraph\\colors\\maps\\CET-L10.csv',
   'C:\\Program '
   'Files\\Python312\\Lib\\site-packages\\pyqtgraph\\colors\\maps\\CET-L10.csv',
   'DATA'),
  ('pyqtgraph\\colors\\maps\\CET-C3.csv',
   'C:\\Program '
   'Files\\Python312\\Lib\\site-packages\\pyqtgraph\\colors\\maps\\CET-C3.csv',
   'DATA'),
  ('pyqtgraph\\colors\\maps\\CET-C4s.csv',
   'C:\\Program '
   'Files\\Python312\\Lib\\site-packages\\pyqtgraph\\colors\\maps\\CET-C4s.csv',
   'DATA'),
  ('pyqtgraph\\icons\\peegee\\peegee_128px@2x.png',
   'C:\\Program '
   'Files\\Python312\\Lib\\site-packages\\pyqtgraph\\icons\\peegee\\peegee_128px@2x.png',
   'DATA'),
  ('pyqtgraph\\icons\\peegee\\peegee_256px.png',
   'C:\\Program '
   'Files\\Python312\\Lib\\site-packages\\pyqtgraph\\icons\\peegee\\peegee_256px.png',
   'DATA'),
  ('pyqtgraph\\colors\\maps\\CET-R2.csv',
   'C:\\Program '
   'Files\\Python312\\Lib\\site-packages\\pyqtgraph\\colors\\maps\\CET-R2.csv',
   'DATA'),
  ('pyqtgraph\\colors\\maps\\CET-D8.csv',
   'C:\\Program '
   'Files\\Python312\\Lib\\site-packages\\pyqtgraph\\colors\\maps\\CET-D8.csv',
   'DATA'),
  ('pyqtgraph\\colors\\maps\\CET-L17.csv',
   'C:\\Program '
   'Files\\Python312\\Lib\\site-packages\\pyqtgraph\\colors\\maps\\CET-L17.csv',
   'DATA'),
  ('pyqtgraph\\colors\\maps\\magma.csv',
   'C:\\Program '
   'Files\\Python312\\Lib\\site-packages\\pyqtgraph\\colors\\maps\\magma.csv',
   'DATA'),
  ('pyqtgraph\\icons\\peegee\\peegee_256px@2x.png',
   'C:\\Program '
   'Files\\Python312\\Lib\\site-packages\\pyqtgraph\\icons\\peegee\\peegee_256px@2x.png',
   'DATA'),
  ('pyqtgraph\\colors\\maps\\CET-CBC1.csv',
   'C:\\Program '
   'Files\\Python312\\Lib\\site-packages\\pyqtgraph\\colors\\maps\\CET-CBC1.csv',
   'DATA'),
  ('pyqtgraph\\colors\\maps\\inferno.csv',
   'C:\\Program '
   'Files\\Python312\\Lib\\site-packages\\pyqtgraph\\colors\\maps\\inferno.csv',
   'DATA'),
  ('pyqtgraph\\colors\\maps\\CET-C5.csv',
   'C:\\Program '
   'Files\\Python312\\Lib\\site-packages\\pyqtgraph\\colors\\maps\\CET-C5.csv',
   'DATA'),
  ('pyqtgraph\\icons\\auto.png',
   'C:\\Program '
   'Files\\Python312\\Lib\\site-packages\\pyqtgraph\\icons\\auto.png',
   'DATA'),
  ('pyqtgraph\\colors\\maps\\CET-L4.csv',
   'C:\\Program '
   'Files\\Python312\\Lib\\site-packages\\pyqtgraph\\colors\\maps\\CET-L4.csv',
   'DATA'),
  ('pyqtgraph\\Qt\\QtSvg.pyi',
   'C:\\Program Files\\Python312\\Lib\\site-packages\\pyqtgraph\\Qt\\QtSvg.pyi',
   'DATA'),
  ('pyqtgraph\\colors\\maps\\CET-D6.csv',
   'C:\\Program '
   'Files\\Python312\\Lib\\site-packages\\pyqtgraph\\colors\\maps\\CET-D6.csv',
   'DATA'),
  ('pyqtgraph\\colors\\maps\\CET-I3.csv',
   'C:\\Program '
   'Files\\Python312\\Lib\\site-packages\\pyqtgraph\\colors\\maps\\CET-I3.csv',
   'DATA'),
  ('pyqtgraph\\colors\\maps\\CET-L15.csv',
   'C:\\Program '
   'Files\\Python312\\Lib\\site-packages\\pyqtgraph\\colors\\maps\\CET-L15.csv',
   'DATA'),
  ('pyqtgraph\\colors\\maps\\CET-D9.csv',
   'C:\\Program '
   'Files\\Python312\\Lib\\site-packages\\pyqtgraph\\colors\\maps\\CET-D9.csv',
   'DATA'),
  ('pyqtgraph\\colors\\maps\\CET-C1.csv',
   'C:\\Program '
   'Files\\Python312\\Lib\\site-packages\\pyqtgraph\\colors\\maps\\CET-C1.csv',
   'DATA'),
  ('pyqtgraph\\Qt\\QtCore\\__init__.pyi',
   'C:\\Program '
   'Files\\Python312\\Lib\\site-packages\\pyqtgraph\\Qt\\QtCore\\__init__.pyi',
   'DATA'),
  ('pyqtgraph\\colors\\maps\\CET-C2.csv',
   'C:\\Program '
   'Files\\Python312\\Lib\\site-packages\\pyqtgraph\\colors\\maps\\CET-C2.csv',
   'DATA'),
  ('pyqtgraph\\Qt\\__init__.pyi',
   'C:\\Program '
   'Files\\Python312\\Lib\\site-packages\\pyqtgraph\\Qt\\__init__.pyi',
   'DATA'),
  ('pyqtgraph\\colors\\maps\\CET-L16.csv',
   'C:\\Program '
   'Files\\Python312\\Lib\\site-packages\\pyqtgraph\\colors\\maps\\CET-L16.csv',
   'DATA'),
  ('pyqtgraph\\colors\\maps\\CET-CBTD1.csv',
   'C:\\Program '
   'Files\\Python312\\Lib\\site-packages\\pyqtgraph\\colors\\maps\\CET-CBTD1.csv',
   'DATA'),
  ('pyqtgraph\\colors\\maps\\CET-D12.csv',
   'C:\\Program '
   'Files\\Python312\\Lib\\site-packages\\pyqtgraph\\colors\\maps\\CET-D12.csv',
   'DATA'),
  ('pyqtgraph\\icons\\invisibleEye.svg',
   'C:\\Program '
   'Files\\Python312\\Lib\\site-packages\\pyqtgraph\\icons\\invisibleEye.svg',
   'DATA'),
  ('pyqtgraph\\colors\\maps\\CET-CBTL2.csv',
   'C:\\Program '
   'Files\\Python312\\Lib\\site-packages\\pyqtgraph\\colors\\maps\\CET-CBTL2.csv',
   'DATA'),
  ('pyqtgraph\\colors\\maps\\CET-C1s.csv',
   'C:\\Program '
   'Files\\Python312\\Lib\\site-packages\\pyqtgraph\\colors\\maps\\CET-C1s.csv',
   'DATA'),
  ('pyqtgraph\\colors\\maps\\plasma.csv',
   'C:\\Program '
   'Files\\Python312\\Lib\\site-packages\\pyqtgraph\\colors\\maps\\plasma.csv',
   'DATA'),
  ('pyqtgraph\\colors\\maps\\CET-C5s.csv',
   'C:\\Program '
   'Files\\Python312\\Lib\\site-packages\\pyqtgraph\\colors\\maps\\CET-C5s.csv',
   'DATA'),
  ('pyqtgraph\\colors\\maps\\CET-L9.csv',
   'C:\\Program '
   'Files\\Python312\\Lib\\site-packages\\pyqtgraph\\colors\\maps\\CET-L9.csv',
   'DATA'),
  ('pyqtgraph\\colors\\maps\\cividis.csv',
   'C:\\Program '
   'Files\\Python312\\Lib\\site-packages\\pyqtgraph\\colors\\maps\\cividis.csv',
   'DATA'),
  ('pyqtgraph\\colors\\maps\\CET-L6.csv',
   'C:\\Program '
   'Files\\Python312\\Lib\\site-packages\\pyqtgraph\\colors\\maps\\CET-L6.csv',
   'DATA'),
  ('pyqtgraph\\colors\\maps\\CET-I2.csv',
   'C:\\Program '
   'Files\\Python312\\Lib\\site-packages\\pyqtgraph\\colors\\maps\\CET-I2.csv',
   'DATA'),
  ('pyqtgraph\\colors\\maps\\CET-L2.csv',
   'C:\\Program '
   'Files\\Python312\\Lib\\site-packages\\pyqtgraph\\colors\\maps\\CET-L2.csv',
   'DATA'),
  ('pyqtgraph\\icons\\lock.png',
   'C:\\Program '
   'Files\\Python312\\Lib\\site-packages\\pyqtgraph\\icons\\lock.png',
   'DATA'),
  ('pyqtgraph\\icons\\peegee\\peegee_512px@2x.png',
   'C:\\Program '
   'Files\\Python312\\Lib\\site-packages\\pyqtgraph\\icons\\peegee\\peegee_512px@2x.png',
   'DATA'),
  ('pyqtgraph\\colors\\maps\\CET-C4.csv',
   'C:\\Program '
   'Files\\Python312\\Lib\\site-packages\\pyqtgraph\\colors\\maps\\CET-C4.csv',
   'DATA'),
  ('pyqtgraph\\icons\\default.png',
   'C:\\Program '
   'Files\\Python312\\Lib\\site-packages\\pyqtgraph\\icons\\default.png',
   'DATA'),
  ('pyqtgraph\\colors\\maps\\PAL-relaxed.hex',
   'C:\\Program '
   'Files\\Python312\\Lib\\site-packages\\pyqtgraph\\colors\\maps\\PAL-relaxed.hex',
   'DATA'),
  ('pyqtgraph\\Qt\\QtTest.pyi',
   'C:\\Program '
   'Files\\Python312\\Lib\\site-packages\\pyqtgraph\\Qt\\QtTest.pyi',
   'DATA'),
  ('pyqtgraph\\colors\\maps\\CET-C2s.csv',
   'C:\\Program '
   'Files\\Python312\\Lib\\site-packages\\pyqtgraph\\colors\\maps\\CET-C2s.csv',
   'DATA'),
  ('pyqtgraph\\colors\\maps\\CET-L12.csv',
   'C:\\Program '
   'Files\\Python312\\Lib\\site-packages\\pyqtgraph\\colors\\maps\\CET-L12.csv',
   'DATA'),
  ('pyqtgraph\\Qt\\QtWidgets\\__init__.pyi',
   'C:\\Program '
   'Files\\Python312\\Lib\\site-packages\\pyqtgraph\\Qt\\QtWidgets\\__init__.pyi',
   'DATA'),
  ('pyqtgraph\\icons\\peegee\\peegee_192px.png',
   'C:\\Program '
   'Files\\Python312\\Lib\\site-packages\\pyqtgraph\\icons\\peegee\\peegee_192px.png',
   'DATA'),
  ('pyqtgraph\\colors\\maps\\CET-R3.csv',
   'C:\\Program '
   'Files\\Python312\\Lib\\site-packages\\pyqtgraph\\colors\\maps\\CET-R3.csv',
   'DATA'),
  ('pyqtgraph\\colors\\maps\\CET-D10.csv',
   'C:\\Program '
   'Files\\Python312\\Lib\\site-packages\\pyqtgraph\\colors\\maps\\CET-D10.csv',
   'DATA'),
  ('pyqtgraph\\colors\\maps\\CC0 legal code - applies to virids, magma, '
   'plasma, inferno and cividis.txt',
   'C:\\Program '
   'Files\\Python312\\Lib\\site-packages\\pyqtgraph\\colors\\maps\\CC0 legal '
   'code - applies to virids, magma, plasma, inferno and cividis.txt',
   'DATA'),
  ('pyqtgraph\\colors\\maps\\CET-R4.csv',
   'C:\\Program '
   'Files\\Python312\\Lib\\site-packages\\pyqtgraph\\colors\\maps\\CET-R4.csv',
   'DATA'),
  ('pyqtgraph\\colors\\maps\\CET-L14.csv',
   'C:\\Program '
   'Files\\Python312\\Lib\\site-packages\\pyqtgraph\\colors\\maps\\CET-L14.csv',
   'DATA'),
  ('pyqtgraph\\colors\\maps\\CET-L5.csv',
   'C:\\Program '
   'Files\\Python312\\Lib\\site-packages\\pyqtgraph\\colors\\maps\\CET-L5.csv',
   'DATA'),
  ('pyqtgraph\\colors\\maps\\CET-CBC2.csv',
   'C:\\Program '
   'Files\\Python312\\Lib\\site-packages\\pyqtgraph\\colors\\maps\\CET-CBC2.csv',
   'DATA'),
  ('pyqtgraph\\colors\\maps\\CET-L11.csv',
   'C:\\Program '
   'Files\\Python312\\Lib\\site-packages\\pyqtgraph\\colors\\maps\\CET-L11.csv',
   'DATA'),
  ('pyqtgraph\\colors\\maps\\CET-D13.csv',
   'C:\\Program '
   'Files\\Python312\\Lib\\site-packages\\pyqtgraph\\colors\\maps\\CET-D13.csv',
   'DATA'),
  ('pyqtgraph\\colors\\maps\\CET-L18.csv',
   'C:\\Program '
   'Files\\Python312\\Lib\\site-packages\\pyqtgraph\\colors\\maps\\CET-L18.csv',
   'DATA'),
  ('pyqtgraph\\colors\\maps\\PAL-relaxed_bright.hex',
   'C:\\Program '
   'Files\\Python312\\Lib\\site-packages\\pyqtgraph\\colors\\maps\\PAL-relaxed_bright.hex',
   'DATA'),
  ('pyqtgraph\\colors\\maps\\CET-I1.csv',
   'C:\\Program '
   'Files\\Python312\\Lib\\site-packages\\pyqtgraph\\colors\\maps\\CET-I1.csv',
   'DATA'),
  ('pyqtgraph\\colors\\maps\\CET-CBTC1.csv',
   'C:\\Program '
   'Files\\Python312\\Lib\\site-packages\\pyqtgraph\\colors\\maps\\CET-CBTC1.csv',
   'DATA'),
  ('pyqtgraph\\colors\\maps\\CET-C3s.csv',
   'C:\\Program '
   'Files\\Python312\\Lib\\site-packages\\pyqtgraph\\colors\\maps\\CET-C3s.csv',
   'DATA'),
  ('pyqtgraph\\colors\\maps\\CET-CBL1.csv',
   'C:\\Program '
   'Files\\Python312\\Lib\\site-packages\\pyqtgraph\\colors\\maps\\CET-CBL1.csv',
   'DATA'),
  ('pyqtgraph\\icons\\ctrl.png',
   'C:\\Program '
   'Files\\Python312\\Lib\\site-packages\\pyqtgraph\\icons\\ctrl.png',
   'DATA'),
  ('pyqtgraph\\icons\\icons.svg',
   'C:\\Program '
   'Files\\Python312\\Lib\\site-packages\\pyqtgraph\\icons\\icons.svg',
   'DATA'),
  ('pyqtgraph\\colors\\maps\\CET-L13.csv',
   'C:\\Program '
   'Files\\Python312\\Lib\\site-packages\\pyqtgraph\\colors\\maps\\CET-L13.csv',
   'DATA'),
  ('pyqtgraph\\colors\\maps\\CET-D11.csv',
   'C:\\Program '
   'Files\\Python312\\Lib\\site-packages\\pyqtgraph\\colors\\maps\\CET-D11.csv',
   'DATA'),
  ('pyqtgraph\\colors\\maps\\viridis.csv',
   'C:\\Program '
   'Files\\Python312\\Lib\\site-packages\\pyqtgraph\\colors\\maps\\viridis.csv',
   'DATA'),
  ('pyqtgraph\\colors\\maps\\CET-L3.csv',
   'C:\\Program '
   'Files\\Python312\\Lib\\site-packages\\pyqtgraph\\colors\\maps\\CET-L3.csv',
   'DATA'),
  ('pyqtgraph\\colors\\maps\\CET-D7.csv',
   'C:\\Program '
   'Files\\Python312\\Lib\\site-packages\\pyqtgraph\\colors\\maps\\CET-D7.csv',
   'DATA'),
  ('pyqtgraph\\colors\\maps\\CET-C7s.csv',
   'C:\\Program '
   'Files\\Python312\\Lib\\site-packages\\pyqtgraph\\colors\\maps\\CET-C7s.csv',
   'DATA'),
  ('pyqtgraph\\icons\\peegee\\peegee_512px.png',
   'C:\\Program '
   'Files\\Python312\\Lib\\site-packages\\pyqtgraph\\icons\\peegee\\peegee_512px.png',
   'DATA'),
  ('pyqtgraph\\colors\\maps\\CET-CBL2.csv',
   'C:\\Program '
   'Files\\Python312\\Lib\\site-packages\\pyqtgraph\\colors\\maps\\CET-CBL2.csv',
   'DATA'),
  ('pyqtgraph\\colors\\maps\\CET-D3.csv',
   'C:\\Program '
   'Files\\Python312\\Lib\\site-packages\\pyqtgraph\\colors\\maps\\CET-D3.csv',
   'DATA'),
  ('pyqtgraph\\Qt\\QtGui\\__init__.pyi',
   'C:\\Program '
   'Files\\Python312\\Lib\\site-packages\\pyqtgraph\\Qt\\QtGui\\__init__.pyi',
   'DATA'),
  ('pyqtgraph\\colors\\maps\\CET-C7.csv',
   'C:\\Program '
   'Files\\Python312\\Lib\\site-packages\\pyqtgraph\\colors\\maps\\CET-C7.csv',
   'DATA')],
 'python312.dll',
 False,
 False,
 False,
 [],
 None,
 None,
 None)
