('C:\\VBOXSVRELM327_project_win\\build\\ELM327_graph_APP_windows\\PYZ-00.pyz',
 [('PyQt5',
   'C:\\Program Files\\Python312\\Lib\\site-packages\\PyQt5\\__init__.py',
   'PYMODULE'),
  ('PyQt5.uic',
   'C:\\Program Files\\Python312\\Lib\\site-packages\\PyQt5\\uic\\__init__.py',
   'PYMODULE'),
  ('PyQt5.uic.Compiler',
   'C:\\Program '
   'Files\\Python312\\Lib\\site-packages\\PyQt5\\uic\\Compiler\\__init__.py',
   'PYMODULE'),
  ('PyQt5.uic.Compiler.compiler',
   'C:\\Program '
   'Files\\Python312\\Lib\\site-packages\\PyQt5\\uic\\Compiler\\compiler.py',
   'PYMODULE'),
  ('PyQt5.uic.Compiler.indenter',
   'C:\\Program '
   'Files\\Python312\\Lib\\site-packages\\PyQt5\\uic\\Compiler\\indenter.py',
   'PYMODULE'),
  ('PyQt5.uic.Compiler.misc',
   'C:\\Program '
   'Files\\Python312\\Lib\\site-packages\\PyQt5\\uic\\Compiler\\misc.py',
   'PYMODULE'),
  ('PyQt5.uic.Compiler.proxy_metaclass',
   'C:\\Program '
   'Files\\Python312\\Lib\\site-packages\\PyQt5\\uic\\Compiler\\proxy_metaclass.py',
   'PYMODULE'),
  ('PyQt5.uic.Compiler.qobjectcreator',
   'C:\\Program '
   'Files\\Python312\\Lib\\site-packages\\PyQt5\\uic\\Compiler\\qobjectcreator.py',
   'PYMODULE'),
  ('PyQt5.uic.Compiler.qtproxies',
   'C:\\Program '
   'Files\\Python312\\Lib\\site-packages\\PyQt5\\uic\\Compiler\\qtproxies.py',
   'PYMODULE'),
  ('PyQt5.uic.Loader',
   'C:\\Program '
   'Files\\Python312\\Lib\\site-packages\\PyQt5\\uic\\Loader\\__init__.py',
   'PYMODULE'),
  ('PyQt5.uic.Loader.loader',
   'C:\\Program '
   'Files\\Python312\\Lib\\site-packages\\PyQt5\\uic\\Loader\\loader.py',
   'PYMODULE'),
  ('PyQt5.uic.Loader.qobjectcreator',
   'C:\\Program '
   'Files\\Python312\\Lib\\site-packages\\PyQt5\\uic\\Loader\\qobjectcreator.py',
   'PYMODULE'),
  ('PyQt5.uic.exceptions',
   'C:\\Program '
   'Files\\Python312\\Lib\\site-packages\\PyQt5\\uic\\exceptions.py',
   'PYMODULE'),
  ('PyQt5.uic.icon_cache',
   'C:\\Program '
   'Files\\Python312\\Lib\\site-packages\\PyQt5\\uic\\icon_cache.py',
   'PYMODULE'),
  ('PyQt5.uic.objcreator',
   'C:\\Program '
   'Files\\Python312\\Lib\\site-packages\\PyQt5\\uic\\objcreator.py',
   'PYMODULE'),
  ('PyQt5.uic.port_v3',
   'C:\\Program '
   'Files\\Python312\\Lib\\site-packages\\PyQt5\\uic\\port_v3\\__init__.py',
   'PYMODULE'),
  ('PyQt5.uic.port_v3.as_string',
   'C:\\Program '
   'Files\\Python312\\Lib\\site-packages\\PyQt5\\uic\\port_v3\\as_string.py',
   'PYMODULE'),
  ('PyQt5.uic.port_v3.ascii_upper',
   'C:\\Program '
   'Files\\Python312\\Lib\\site-packages\\PyQt5\\uic\\port_v3\\ascii_upper.py',
   'PYMODULE'),
  ('PyQt5.uic.port_v3.proxy_base',
   'C:\\Program '
   'Files\\Python312\\Lib\\site-packages\\PyQt5\\uic\\port_v3\\proxy_base.py',
   'PYMODULE'),
  ('PyQt5.uic.port_v3.string_io',
   'C:\\Program '
   'Files\\Python312\\Lib\\site-packages\\PyQt5\\uic\\port_v3\\string_io.py',
   'PYMODULE'),
  ('PyQt5.uic.properties',
   'C:\\Program '
   'Files\\Python312\\Lib\\site-packages\\PyQt5\\uic\\properties.py',
   'PYMODULE'),
  ('PyQt5.uic.uiparser',
   'C:\\Program Files\\Python312\\Lib\\site-packages\\PyQt5\\uic\\uiparser.py',
   'PYMODULE'),
  ('__future__',
   'C:\\Program Files\\Python312\\Lib\\__future__.py',
   'PYMODULE'),
  ('_aix_support',
   'C:\\Program Files\\Python312\\Lib\\_aix_support.py',
   'PYMODULE'),
  ('_compat_pickle',
   'C:\\Program Files\\Python312\\Lib\\_compat_pickle.py',
   'PYMODULE'),
  ('_compression',
   'C:\\Program Files\\Python312\\Lib\\_compression.py',
   'PYMODULE'),
  ('_py_abc', 'C:\\Program Files\\Python312\\Lib\\_py_abc.py', 'PYMODULE'),
  ('_pydatetime',
   'C:\\Program Files\\Python312\\Lib\\_pydatetime.py',
   'PYMODULE'),
  ('_pydecimal',
   'C:\\Program Files\\Python312\\Lib\\_pydecimal.py',
   'PYMODULE'),
  ('_pyi_rth_utils',
   'C:\\Program '
   'Files\\Python312\\Lib\\site-packages\\PyInstaller\\fake-modules\\_pyi_rth_utils\\__init__.py',
   'PYMODULE'),
  ('_pyi_rth_utils.qt',
   'C:\\Program '
   'Files\\Python312\\Lib\\site-packages\\PyInstaller\\fake-modules\\_pyi_rth_utils\\qt.py',
   'PYMODULE'),
  ('_strptime', 'C:\\Program Files\\Python312\\Lib\\_strptime.py', 'PYMODULE'),
  ('_threading_local',
   'C:\\Program Files\\Python312\\Lib\\_threading_local.py',
   'PYMODULE'),
  ('argparse', 'C:\\Program Files\\Python312\\Lib\\argparse.py', 'PYMODULE'),
  ('ast', 'C:\\Program Files\\Python312\\Lib\\ast.py', 'PYMODULE'),
  ('asyncio',
   'C:\\Program Files\\Python312\\Lib\\asyncio\\__init__.py',
   'PYMODULE'),
  ('asyncio.base_events',
   'C:\\Program Files\\Python312\\Lib\\asyncio\\base_events.py',
   'PYMODULE'),
  ('asyncio.base_futures',
   'C:\\Program Files\\Python312\\Lib\\asyncio\\base_futures.py',
   'PYMODULE'),
  ('asyncio.base_subprocess',
   'C:\\Program Files\\Python312\\Lib\\asyncio\\base_subprocess.py',
   'PYMODULE'),
  ('asyncio.base_tasks',
   'C:\\Program Files\\Python312\\Lib\\asyncio\\base_tasks.py',
   'PYMODULE'),
  ('asyncio.constants',
   'C:\\Program Files\\Python312\\Lib\\asyncio\\constants.py',
   'PYMODULE'),
  ('asyncio.coroutines',
   'C:\\Program Files\\Python312\\Lib\\asyncio\\coroutines.py',
   'PYMODULE'),
  ('asyncio.events',
   'C:\\Program Files\\Python312\\Lib\\asyncio\\events.py',
   'PYMODULE'),
  ('asyncio.exceptions',
   'C:\\Program Files\\Python312\\Lib\\asyncio\\exceptions.py',
   'PYMODULE'),
  ('asyncio.format_helpers',
   'C:\\Program Files\\Python312\\Lib\\asyncio\\format_helpers.py',
   'PYMODULE'),
  ('asyncio.futures',
   'C:\\Program Files\\Python312\\Lib\\asyncio\\futures.py',
   'PYMODULE'),
  ('asyncio.locks',
   'C:\\Program Files\\Python312\\Lib\\asyncio\\locks.py',
   'PYMODULE'),
  ('asyncio.log',
   'C:\\Program Files\\Python312\\Lib\\asyncio\\log.py',
   'PYMODULE'),
  ('asyncio.mixins',
   'C:\\Program Files\\Python312\\Lib\\asyncio\\mixins.py',
   'PYMODULE'),
  ('asyncio.proactor_events',
   'C:\\Program Files\\Python312\\Lib\\asyncio\\proactor_events.py',
   'PYMODULE'),
  ('asyncio.protocols',
   'C:\\Program Files\\Python312\\Lib\\asyncio\\protocols.py',
   'PYMODULE'),
  ('asyncio.queues',
   'C:\\Program Files\\Python312\\Lib\\asyncio\\queues.py',
   'PYMODULE'),
  ('asyncio.runners',
   'C:\\Program Files\\Python312\\Lib\\asyncio\\runners.py',
   'PYMODULE'),
  ('asyncio.selector_events',
   'C:\\Program Files\\Python312\\Lib\\asyncio\\selector_events.py',
   'PYMODULE'),
  ('asyncio.sslproto',
   'C:\\Program Files\\Python312\\Lib\\asyncio\\sslproto.py',
   'PYMODULE'),
  ('asyncio.staggered',
   'C:\\Program Files\\Python312\\Lib\\asyncio\\staggered.py',
   'PYMODULE'),
  ('asyncio.streams',
   'C:\\Program Files\\Python312\\Lib\\asyncio\\streams.py',
   'PYMODULE'),
  ('asyncio.subprocess',
   'C:\\Program Files\\Python312\\Lib\\asyncio\\subprocess.py',
   'PYMODULE'),
  ('asyncio.taskgroups',
   'C:\\Program Files\\Python312\\Lib\\asyncio\\taskgroups.py',
   'PYMODULE'),
  ('asyncio.tasks',
   'C:\\Program Files\\Python312\\Lib\\asyncio\\tasks.py',
   'PYMODULE'),
  ('asyncio.threads',
   'C:\\Program Files\\Python312\\Lib\\asyncio\\threads.py',
   'PYMODULE'),
  ('asyncio.timeouts',
   'C:\\Program Files\\Python312\\Lib\\asyncio\\timeouts.py',
   'PYMODULE'),
  ('asyncio.transports',
   'C:\\Program Files\\Python312\\Lib\\asyncio\\transports.py',
   'PYMODULE'),
  ('asyncio.trsock',
   'C:\\Program Files\\Python312\\Lib\\asyncio\\trsock.py',
   'PYMODULE'),
  ('asyncio.unix_events',
   'C:\\Program Files\\Python312\\Lib\\asyncio\\unix_events.py',
   'PYMODULE'),
  ('asyncio.windows_events',
   'C:\\Program Files\\Python312\\Lib\\asyncio\\windows_events.py',
   'PYMODULE'),
  ('asyncio.windows_utils',
   'C:\\Program Files\\Python312\\Lib\\asyncio\\windows_utils.py',
   'PYMODULE'),
  ('base64', 'C:\\Program Files\\Python312\\Lib\\base64.py', 'PYMODULE'),
  ('bdb', 'C:\\Program Files\\Python312\\Lib\\bdb.py', 'PYMODULE'),
  ('bisect', 'C:\\Program Files\\Python312\\Lib\\bisect.py', 'PYMODULE'),
  ('bz2', 'C:\\Program Files\\Python312\\Lib\\bz2.py', 'PYMODULE'),
  ('cProfile', 'C:\\Program Files\\Python312\\Lib\\cProfile.py', 'PYMODULE'),
  ('calendar', 'C:\\Program Files\\Python312\\Lib\\calendar.py', 'PYMODULE'),
  ('cmd', 'C:\\Program Files\\Python312\\Lib\\cmd.py', 'PYMODULE'),
  ('code', 'C:\\Program Files\\Python312\\Lib\\code.py', 'PYMODULE'),
  ('codeop', 'C:\\Program Files\\Python312\\Lib\\codeop.py', 'PYMODULE'),
  ('concurrent',
   'C:\\Program Files\\Python312\\Lib\\concurrent\\__init__.py',
   'PYMODULE'),
  ('concurrent.futures',
   'C:\\Program Files\\Python312\\Lib\\concurrent\\futures\\__init__.py',
   'PYMODULE'),
  ('concurrent.futures._base',
   'C:\\Program Files\\Python312\\Lib\\concurrent\\futures\\_base.py',
   'PYMODULE'),
  ('concurrent.futures.process',
   'C:\\Program Files\\Python312\\Lib\\concurrent\\futures\\process.py',
   'PYMODULE'),
  ('concurrent.futures.thread',
   'C:\\Program Files\\Python312\\Lib\\concurrent\\futures\\thread.py',
   'PYMODULE'),
  ('contextlib',
   'C:\\Program Files\\Python312\\Lib\\contextlib.py',
   'PYMODULE'),
  ('contextvars',
   'C:\\Program Files\\Python312\\Lib\\contextvars.py',
   'PYMODULE'),
  ('copy', 'C:\\Program Files\\Python312\\Lib\\copy.py', 'PYMODULE'),
  ('csv', 'C:\\Program Files\\Python312\\Lib\\csv.py', 'PYMODULE'),
  ('ctypes',
   'C:\\Program Files\\Python312\\Lib\\ctypes\\__init__.py',
   'PYMODULE'),
  ('ctypes._endian',
   'C:\\Program Files\\Python312\\Lib\\ctypes\\_endian.py',
   'PYMODULE'),
  ('ctypes.wintypes',
   'C:\\Program Files\\Python312\\Lib\\ctypes\\wintypes.py',
   'PYMODULE'),
  ('dataclasses',
   'C:\\Program Files\\Python312\\Lib\\dataclasses.py',
   'PYMODULE'),
  ('datetime', 'C:\\Program Files\\Python312\\Lib\\datetime.py', 'PYMODULE'),
  ('decimal', 'C:\\Program Files\\Python312\\Lib\\decimal.py', 'PYMODULE'),
  ('difflib', 'C:\\Program Files\\Python312\\Lib\\difflib.py', 'PYMODULE'),
  ('dis', 'C:\\Program Files\\Python312\\Lib\\dis.py', 'PYMODULE'),
  ('doctest', 'C:\\Program Files\\Python312\\Lib\\doctest.py', 'PYMODULE'),
  ('email',
   'C:\\Program Files\\Python312\\Lib\\email\\__init__.py',
   'PYMODULE'),
  ('email._encoded_words',
   'C:\\Program Files\\Python312\\Lib\\email\\_encoded_words.py',
   'PYMODULE'),
  ('email._header_value_parser',
   'C:\\Program Files\\Python312\\Lib\\email\\_header_value_parser.py',
   'PYMODULE'),
  ('email._parseaddr',
   'C:\\Program Files\\Python312\\Lib\\email\\_parseaddr.py',
   'PYMODULE'),
  ('email._policybase',
   'C:\\Program Files\\Python312\\Lib\\email\\_policybase.py',
   'PYMODULE'),
  ('email.base64mime',
   'C:\\Program Files\\Python312\\Lib\\email\\base64mime.py',
   'PYMODULE'),
  ('email.charset',
   'C:\\Program Files\\Python312\\Lib\\email\\charset.py',
   'PYMODULE'),
  ('email.contentmanager',
   'C:\\Program Files\\Python312\\Lib\\email\\contentmanager.py',
   'PYMODULE'),
  ('email.encoders',
   'C:\\Program Files\\Python312\\Lib\\email\\encoders.py',
   'PYMODULE'),
  ('email.errors',
   'C:\\Program Files\\Python312\\Lib\\email\\errors.py',
   'PYMODULE'),
  ('email.feedparser',
   'C:\\Program Files\\Python312\\Lib\\email\\feedparser.py',
   'PYMODULE'),
  ('email.generator',
   'C:\\Program Files\\Python312\\Lib\\email\\generator.py',
   'PYMODULE'),
  ('email.header',
   'C:\\Program Files\\Python312\\Lib\\email\\header.py',
   'PYMODULE'),
  ('email.headerregistry',
   'C:\\Program Files\\Python312\\Lib\\email\\headerregistry.py',
   'PYMODULE'),
  ('email.iterators',
   'C:\\Program Files\\Python312\\Lib\\email\\iterators.py',
   'PYMODULE'),
  ('email.message',
   'C:\\Program Files\\Python312\\Lib\\email\\message.py',
   'PYMODULE'),
  ('email.parser',
   'C:\\Program Files\\Python312\\Lib\\email\\parser.py',
   'PYMODULE'),
  ('email.policy',
   'C:\\Program Files\\Python312\\Lib\\email\\policy.py',
   'PYMODULE'),
  ('email.quoprimime',
   'C:\\Program Files\\Python312\\Lib\\email\\quoprimime.py',
   'PYMODULE'),
  ('email.utils',
   'C:\\Program Files\\Python312\\Lib\\email\\utils.py',
   'PYMODULE'),
  ('fnmatch', 'C:\\Program Files\\Python312\\Lib\\fnmatch.py', 'PYMODULE'),
  ('fractions', 'C:\\Program Files\\Python312\\Lib\\fractions.py', 'PYMODULE'),
  ('ftplib', 'C:\\Program Files\\Python312\\Lib\\ftplib.py', 'PYMODULE'),
  ('getopt', 'C:\\Program Files\\Python312\\Lib\\getopt.py', 'PYMODULE'),
  ('getpass', 'C:\\Program Files\\Python312\\Lib\\getpass.py', 'PYMODULE'),
  ('gettext', 'C:\\Program Files\\Python312\\Lib\\gettext.py', 'PYMODULE'),
  ('glob', 'C:\\Program Files\\Python312\\Lib\\glob.py', 'PYMODULE'),
  ('gzip', 'C:\\Program Files\\Python312\\Lib\\gzip.py', 'PYMODULE'),
  ('hashlib', 'C:\\Program Files\\Python312\\Lib\\hashlib.py', 'PYMODULE'),
  ('hmac', 'C:\\Program Files\\Python312\\Lib\\hmac.py', 'PYMODULE'),
  ('html', 'C:\\Program Files\\Python312\\Lib\\html\\__init__.py', 'PYMODULE'),
  ('html.entities',
   'C:\\Program Files\\Python312\\Lib\\html\\entities.py',
   'PYMODULE'),
  ('http', 'C:\\Program Files\\Python312\\Lib\\http\\__init__.py', 'PYMODULE'),
  ('http.client',
   'C:\\Program Files\\Python312\\Lib\\http\\client.py',
   'PYMODULE'),
  ('http.cookiejar',
   'C:\\Program Files\\Python312\\Lib\\http\\cookiejar.py',
   'PYMODULE'),
  ('http.server',
   'C:\\Program Files\\Python312\\Lib\\http\\server.py',
   'PYMODULE'),
  ('importlib',
   'C:\\Program Files\\Python312\\Lib\\importlib\\__init__.py',
   'PYMODULE'),
  ('importlib._abc',
   'C:\\Program Files\\Python312\\Lib\\importlib\\_abc.py',
   'PYMODULE'),
  ('importlib._bootstrap',
   'C:\\Program Files\\Python312\\Lib\\importlib\\_bootstrap.py',
   'PYMODULE'),
  ('importlib._bootstrap_external',
   'C:\\Program Files\\Python312\\Lib\\importlib\\_bootstrap_external.py',
   'PYMODULE'),
  ('importlib.abc',
   'C:\\Program Files\\Python312\\Lib\\importlib\\abc.py',
   'PYMODULE'),
  ('importlib.machinery',
   'C:\\Program Files\\Python312\\Lib\\importlib\\machinery.py',
   'PYMODULE'),
  ('importlib.metadata',
   'C:\\Program Files\\Python312\\Lib\\importlib\\metadata\\__init__.py',
   'PYMODULE'),
  ('importlib.metadata._adapters',
   'C:\\Program Files\\Python312\\Lib\\importlib\\metadata\\_adapters.py',
   'PYMODULE'),
  ('importlib.metadata._collections',
   'C:\\Program Files\\Python312\\Lib\\importlib\\metadata\\_collections.py',
   'PYMODULE'),
  ('importlib.metadata._functools',
   'C:\\Program Files\\Python312\\Lib\\importlib\\metadata\\_functools.py',
   'PYMODULE'),
  ('importlib.metadata._itertools',
   'C:\\Program Files\\Python312\\Lib\\importlib\\metadata\\_itertools.py',
   'PYMODULE'),
  ('importlib.metadata._meta',
   'C:\\Program Files\\Python312\\Lib\\importlib\\metadata\\_meta.py',
   'PYMODULE'),
  ('importlib.metadata._text',
   'C:\\Program Files\\Python312\\Lib\\importlib\\metadata\\_text.py',
   'PYMODULE'),
  ('importlib.readers',
   'C:\\Program Files\\Python312\\Lib\\importlib\\readers.py',
   'PYMODULE'),
  ('importlib.resources',
   'C:\\Program Files\\Python312\\Lib\\importlib\\resources\\__init__.py',
   'PYMODULE'),
  ('importlib.resources._adapters',
   'C:\\Program Files\\Python312\\Lib\\importlib\\resources\\_adapters.py',
   'PYMODULE'),
  ('importlib.resources._common',
   'C:\\Program Files\\Python312\\Lib\\importlib\\resources\\_common.py',
   'PYMODULE'),
  ('importlib.resources._itertools',
   'C:\\Program Files\\Python312\\Lib\\importlib\\resources\\_itertools.py',
   'PYMODULE'),
  ('importlib.resources._legacy',
   'C:\\Program Files\\Python312\\Lib\\importlib\\resources\\_legacy.py',
   'PYMODULE'),
  ('importlib.resources.abc',
   'C:\\Program Files\\Python312\\Lib\\importlib\\resources\\abc.py',
   'PYMODULE'),
  ('importlib.resources.readers',
   'C:\\Program Files\\Python312\\Lib\\importlib\\resources\\readers.py',
   'PYMODULE'),
  ('importlib.util',
   'C:\\Program Files\\Python312\\Lib\\importlib\\util.py',
   'PYMODULE'),
  ('inspect', 'C:\\Program Files\\Python312\\Lib\\inspect.py', 'PYMODULE'),
  ('ipaddress', 'C:\\Program Files\\Python312\\Lib\\ipaddress.py', 'PYMODULE'),
  ('json', 'C:\\Program Files\\Python312\\Lib\\json\\__init__.py', 'PYMODULE'),
  ('json.decoder',
   'C:\\Program Files\\Python312\\Lib\\json\\decoder.py',
   'PYMODULE'),
  ('json.encoder',
   'C:\\Program Files\\Python312\\Lib\\json\\encoder.py',
   'PYMODULE'),
  ('json.scanner',
   'C:\\Program Files\\Python312\\Lib\\json\\scanner.py',
   'PYMODULE'),
  ('logging',
   'C:\\Program Files\\Python312\\Lib\\logging\\__init__.py',
   'PYMODULE'),
  ('lzma', 'C:\\Program Files\\Python312\\Lib\\lzma.py', 'PYMODULE'),
  ('mimetypes', 'C:\\Program Files\\Python312\\Lib\\mimetypes.py', 'PYMODULE'),
  ('multiprocessing',
   'C:\\Program Files\\Python312\\Lib\\multiprocessing\\__init__.py',
   'PYMODULE'),
  ('multiprocessing.connection',
   'C:\\Program Files\\Python312\\Lib\\multiprocessing\\connection.py',
   'PYMODULE'),
  ('multiprocessing.context',
   'C:\\Program Files\\Python312\\Lib\\multiprocessing\\context.py',
   'PYMODULE'),
  ('multiprocessing.dummy',
   'C:\\Program Files\\Python312\\Lib\\multiprocessing\\dummy\\__init__.py',
   'PYMODULE'),
  ('multiprocessing.dummy.connection',
   'C:\\Program Files\\Python312\\Lib\\multiprocessing\\dummy\\connection.py',
   'PYMODULE'),
  ('multiprocessing.forkserver',
   'C:\\Program Files\\Python312\\Lib\\multiprocessing\\forkserver.py',
   'PYMODULE'),
  ('multiprocessing.heap',
   'C:\\Program Files\\Python312\\Lib\\multiprocessing\\heap.py',
   'PYMODULE'),
  ('multiprocessing.managers',
   'C:\\Program Files\\Python312\\Lib\\multiprocessing\\managers.py',
   'PYMODULE'),
  ('multiprocessing.pool',
   'C:\\Program Files\\Python312\\Lib\\multiprocessing\\pool.py',
   'PYMODULE'),
  ('multiprocessing.popen_fork',
   'C:\\Program Files\\Python312\\Lib\\multiprocessing\\popen_fork.py',
   'PYMODULE'),
  ('multiprocessing.popen_forkserver',
   'C:\\Program Files\\Python312\\Lib\\multiprocessing\\popen_forkserver.py',
   'PYMODULE'),
  ('multiprocessing.popen_spawn_posix',
   'C:\\Program Files\\Python312\\Lib\\multiprocessing\\popen_spawn_posix.py',
   'PYMODULE'),
  ('multiprocessing.popen_spawn_win32',
   'C:\\Program Files\\Python312\\Lib\\multiprocessing\\popen_spawn_win32.py',
   'PYMODULE'),
  ('multiprocessing.process',
   'C:\\Program Files\\Python312\\Lib\\multiprocessing\\process.py',
   'PYMODULE'),
  ('multiprocessing.queues',
   'C:\\Program Files\\Python312\\Lib\\multiprocessing\\queues.py',
   'PYMODULE'),
  ('multiprocessing.reduction',
   'C:\\Program Files\\Python312\\Lib\\multiprocessing\\reduction.py',
   'PYMODULE'),
  ('multiprocessing.resource_sharer',
   'C:\\Program Files\\Python312\\Lib\\multiprocessing\\resource_sharer.py',
   'PYMODULE'),
  ('multiprocessing.resource_tracker',
   'C:\\Program Files\\Python312\\Lib\\multiprocessing\\resource_tracker.py',
   'PYMODULE'),
  ('multiprocessing.shared_memory',
   'C:\\Program Files\\Python312\\Lib\\multiprocessing\\shared_memory.py',
   'PYMODULE'),
  ('multiprocessing.sharedctypes',
   'C:\\Program Files\\Python312\\Lib\\multiprocessing\\sharedctypes.py',
   'PYMODULE'),
  ('multiprocessing.spawn',
   'C:\\Program Files\\Python312\\Lib\\multiprocessing\\spawn.py',
   'PYMODULE'),
  ('multiprocessing.synchronize',
   'C:\\Program Files\\Python312\\Lib\\multiprocessing\\synchronize.py',
   'PYMODULE'),
  ('multiprocessing.util',
   'C:\\Program Files\\Python312\\Lib\\multiprocessing\\util.py',
   'PYMODULE'),
  ('netrc', 'C:\\Program Files\\Python312\\Lib\\netrc.py', 'PYMODULE'),
  ('nturl2path',
   'C:\\Program Files\\Python312\\Lib\\nturl2path.py',
   'PYMODULE'),
  ('numbers', 'C:\\Program Files\\Python312\\Lib\\numbers.py', 'PYMODULE'),
  ('numpy',
   'C:\\Program Files\\Python312\\Lib\\site-packages\\numpy\\__init__.py',
   'PYMODULE'),
  ('numpy.__config__',
   'C:\\Program Files\\Python312\\Lib\\site-packages\\numpy\\__config__.py',
   'PYMODULE'),
  ('numpy._core',
   'C:\\Program '
   'Files\\Python312\\Lib\\site-packages\\numpy\\_core\\__init__.py',
   'PYMODULE'),
  ('numpy._core._add_newdocs',
   'C:\\Program '
   'Files\\Python312\\Lib\\site-packages\\numpy\\_core\\_add_newdocs.py',
   'PYMODULE'),
  ('numpy._core._add_newdocs_scalars',
   'C:\\Program '
   'Files\\Python312\\Lib\\site-packages\\numpy\\_core\\_add_newdocs_scalars.py',
   'PYMODULE'),
  ('numpy._core._asarray',
   'C:\\Program '
   'Files\\Python312\\Lib\\site-packages\\numpy\\_core\\_asarray.py',
   'PYMODULE'),
  ('numpy._core._dtype',
   'C:\\Program Files\\Python312\\Lib\\site-packages\\numpy\\_core\\_dtype.py',
   'PYMODULE'),
  ('numpy._core._dtype_ctypes',
   'C:\\Program '
   'Files\\Python312\\Lib\\site-packages\\numpy\\_core\\_dtype_ctypes.py',
   'PYMODULE'),
  ('numpy._core._exceptions',
   'C:\\Program '
   'Files\\Python312\\Lib\\site-packages\\numpy\\_core\\_exceptions.py',
   'PYMODULE'),
  ('numpy._core._internal',
   'C:\\Program '
   'Files\\Python312\\Lib\\site-packages\\numpy\\_core\\_internal.py',
   'PYMODULE'),
  ('numpy._core._machar',
   'C:\\Program Files\\Python312\\Lib\\site-packages\\numpy\\_core\\_machar.py',
   'PYMODULE'),
  ('numpy._core._methods',
   'C:\\Program '
   'Files\\Python312\\Lib\\site-packages\\numpy\\_core\\_methods.py',
   'PYMODULE'),
  ('numpy._core._string_helpers',
   'C:\\Program '
   'Files\\Python312\\Lib\\site-packages\\numpy\\_core\\_string_helpers.py',
   'PYMODULE'),
  ('numpy._core._type_aliases',
   'C:\\Program '
   'Files\\Python312\\Lib\\site-packages\\numpy\\_core\\_type_aliases.py',
   'PYMODULE'),
  ('numpy._core._ufunc_config',
   'C:\\Program '
   'Files\\Python312\\Lib\\site-packages\\numpy\\_core\\_ufunc_config.py',
   'PYMODULE'),
  ('numpy._core.arrayprint',
   'C:\\Program '
   'Files\\Python312\\Lib\\site-packages\\numpy\\_core\\arrayprint.py',
   'PYMODULE'),
  ('numpy._core.defchararray',
   'C:\\Program '
   'Files\\Python312\\Lib\\site-packages\\numpy\\_core\\defchararray.py',
   'PYMODULE'),
  ('numpy._core.einsumfunc',
   'C:\\Program '
   'Files\\Python312\\Lib\\site-packages\\numpy\\_core\\einsumfunc.py',
   'PYMODULE'),
  ('numpy._core.fromnumeric',
   'C:\\Program '
   'Files\\Python312\\Lib\\site-packages\\numpy\\_core\\fromnumeric.py',
   'PYMODULE'),
  ('numpy._core.function_base',
   'C:\\Program '
   'Files\\Python312\\Lib\\site-packages\\numpy\\_core\\function_base.py',
   'PYMODULE'),
  ('numpy._core.getlimits',
   'C:\\Program '
   'Files\\Python312\\Lib\\site-packages\\numpy\\_core\\getlimits.py',
   'PYMODULE'),
  ('numpy._core.memmap',
   'C:\\Program Files\\Python312\\Lib\\site-packages\\numpy\\_core\\memmap.py',
   'PYMODULE'),
  ('numpy._core.multiarray',
   'C:\\Program '
   'Files\\Python312\\Lib\\site-packages\\numpy\\_core\\multiarray.py',
   'PYMODULE'),
  ('numpy._core.numeric',
   'C:\\Program Files\\Python312\\Lib\\site-packages\\numpy\\_core\\numeric.py',
   'PYMODULE'),
  ('numpy._core.numerictypes',
   'C:\\Program '
   'Files\\Python312\\Lib\\site-packages\\numpy\\_core\\numerictypes.py',
   'PYMODULE'),
  ('numpy._core.overrides',
   'C:\\Program '
   'Files\\Python312\\Lib\\site-packages\\numpy\\_core\\overrides.py',
   'PYMODULE'),
  ('numpy._core.records',
   'C:\\Program Files\\Python312\\Lib\\site-packages\\numpy\\_core\\records.py',
   'PYMODULE'),
  ('numpy._core.shape_base',
   'C:\\Program '
   'Files\\Python312\\Lib\\site-packages\\numpy\\_core\\shape_base.py',
   'PYMODULE'),
  ('numpy._core.strings',
   'C:\\Program Files\\Python312\\Lib\\site-packages\\numpy\\_core\\strings.py',
   'PYMODULE'),
  ('numpy._core.umath',
   'C:\\Program Files\\Python312\\Lib\\site-packages\\numpy\\_core\\umath.py',
   'PYMODULE'),
  ('numpy._distributor_init',
   'C:\\Program '
   'Files\\Python312\\Lib\\site-packages\\numpy\\_distributor_init.py',
   'PYMODULE'),
  ('numpy._expired_attrs_2_0',
   'C:\\Program '
   'Files\\Python312\\Lib\\site-packages\\numpy\\_expired_attrs_2_0.py',
   'PYMODULE'),
  ('numpy._globals',
   'C:\\Program Files\\Python312\\Lib\\site-packages\\numpy\\_globals.py',
   'PYMODULE'),
  ('numpy._pytesttester',
   'C:\\Program Files\\Python312\\Lib\\site-packages\\numpy\\_pytesttester.py',
   'PYMODULE'),
  ('numpy._typing',
   'C:\\Program '
   'Files\\Python312\\Lib\\site-packages\\numpy\\_typing\\__init__.py',
   'PYMODULE'),
  ('numpy._typing._add_docstring',
   'C:\\Program '
   'Files\\Python312\\Lib\\site-packages\\numpy\\_typing\\_add_docstring.py',
   'PYMODULE'),
  ('numpy._typing._array_like',
   'C:\\Program '
   'Files\\Python312\\Lib\\site-packages\\numpy\\_typing\\_array_like.py',
   'PYMODULE'),
  ('numpy._typing._char_codes',
   'C:\\Program '
   'Files\\Python312\\Lib\\site-packages\\numpy\\_typing\\_char_codes.py',
   'PYMODULE'),
  ('numpy._typing._dtype_like',
   'C:\\Program '
   'Files\\Python312\\Lib\\site-packages\\numpy\\_typing\\_dtype_like.py',
   'PYMODULE'),
  ('numpy._typing._nbit',
   'C:\\Program Files\\Python312\\Lib\\site-packages\\numpy\\_typing\\_nbit.py',
   'PYMODULE'),
  ('numpy._typing._nested_sequence',
   'C:\\Program '
   'Files\\Python312\\Lib\\site-packages\\numpy\\_typing\\_nested_sequence.py',
   'PYMODULE'),
  ('numpy._typing._scalars',
   'C:\\Program '
   'Files\\Python312\\Lib\\site-packages\\numpy\\_typing\\_scalars.py',
   'PYMODULE'),
  ('numpy._typing._shape',
   'C:\\Program '
   'Files\\Python312\\Lib\\site-packages\\numpy\\_typing\\_shape.py',
   'PYMODULE'),
  ('numpy._utils',
   'C:\\Program '
   'Files\\Python312\\Lib\\site-packages\\numpy\\_utils\\__init__.py',
   'PYMODULE'),
  ('numpy._utils._convertions',
   'C:\\Program '
   'Files\\Python312\\Lib\\site-packages\\numpy\\_utils\\_convertions.py',
   'PYMODULE'),
  ('numpy._utils._inspect',
   'C:\\Program '
   'Files\\Python312\\Lib\\site-packages\\numpy\\_utils\\_inspect.py',
   'PYMODULE'),
  ('numpy.char',
   'C:\\Program Files\\Python312\\Lib\\site-packages\\numpy\\char\\__init__.py',
   'PYMODULE'),
  ('numpy.core',
   'C:\\Program Files\\Python312\\Lib\\site-packages\\numpy\\core\\__init__.py',
   'PYMODULE'),
  ('numpy.core._utils',
   'C:\\Program Files\\Python312\\Lib\\site-packages\\numpy\\core\\_utils.py',
   'PYMODULE'),
  ('numpy.ctypeslib',
   'C:\\Program Files\\Python312\\Lib\\site-packages\\numpy\\ctypeslib.py',
   'PYMODULE'),
  ('numpy.dtypes',
   'C:\\Program Files\\Python312\\Lib\\site-packages\\numpy\\dtypes.py',
   'PYMODULE'),
  ('numpy.exceptions',
   'C:\\Program Files\\Python312\\Lib\\site-packages\\numpy\\exceptions.py',
   'PYMODULE'),
  ('numpy.fft',
   'C:\\Program Files\\Python312\\Lib\\site-packages\\numpy\\fft\\__init__.py',
   'PYMODULE'),
  ('numpy.fft._helper',
   'C:\\Program Files\\Python312\\Lib\\site-packages\\numpy\\fft\\_helper.py',
   'PYMODULE'),
  ('numpy.fft._pocketfft',
   'C:\\Program '
   'Files\\Python312\\Lib\\site-packages\\numpy\\fft\\_pocketfft.py',
   'PYMODULE'),
  ('numpy.fft.helper',
   'C:\\Program Files\\Python312\\Lib\\site-packages\\numpy\\fft\\helper.py',
   'PYMODULE'),
  ('numpy.lib',
   'C:\\Program Files\\Python312\\Lib\\site-packages\\numpy\\lib\\__init__.py',
   'PYMODULE'),
  ('numpy.lib._array_utils_impl',
   'C:\\Program '
   'Files\\Python312\\Lib\\site-packages\\numpy\\lib\\_array_utils_impl.py',
   'PYMODULE'),
  ('numpy.lib._arraypad_impl',
   'C:\\Program '
   'Files\\Python312\\Lib\\site-packages\\numpy\\lib\\_arraypad_impl.py',
   'PYMODULE'),
  ('numpy.lib._arraysetops_impl',
   'C:\\Program '
   'Files\\Python312\\Lib\\site-packages\\numpy\\lib\\_arraysetops_impl.py',
   'PYMODULE'),
  ('numpy.lib._arrayterator_impl',
   'C:\\Program '
   'Files\\Python312\\Lib\\site-packages\\numpy\\lib\\_arrayterator_impl.py',
   'PYMODULE'),
  ('numpy.lib._datasource',
   'C:\\Program '
   'Files\\Python312\\Lib\\site-packages\\numpy\\lib\\_datasource.py',
   'PYMODULE'),
  ('numpy.lib._function_base_impl',
   'C:\\Program '
   'Files\\Python312\\Lib\\site-packages\\numpy\\lib\\_function_base_impl.py',
   'PYMODULE'),
  ('numpy.lib._histograms_impl',
   'C:\\Program '
   'Files\\Python312\\Lib\\site-packages\\numpy\\lib\\_histograms_impl.py',
   'PYMODULE'),
  ('numpy.lib._index_tricks_impl',
   'C:\\Program '
   'Files\\Python312\\Lib\\site-packages\\numpy\\lib\\_index_tricks_impl.py',
   'PYMODULE'),
  ('numpy.lib._iotools',
   'C:\\Program Files\\Python312\\Lib\\site-packages\\numpy\\lib\\_iotools.py',
   'PYMODULE'),
  ('numpy.lib._nanfunctions_impl',
   'C:\\Program '
   'Files\\Python312\\Lib\\site-packages\\numpy\\lib\\_nanfunctions_impl.py',
   'PYMODULE'),
  ('numpy.lib._npyio_impl',
   'C:\\Program '
   'Files\\Python312\\Lib\\site-packages\\numpy\\lib\\_npyio_impl.py',
   'PYMODULE'),
  ('numpy.lib._polynomial_impl',
   'C:\\Program '
   'Files\\Python312\\Lib\\site-packages\\numpy\\lib\\_polynomial_impl.py',
   'PYMODULE'),
  ('numpy.lib._scimath_impl',
   'C:\\Program '
   'Files\\Python312\\Lib\\site-packages\\numpy\\lib\\_scimath_impl.py',
   'PYMODULE'),
  ('numpy.lib._shape_base_impl',
   'C:\\Program '
   'Files\\Python312\\Lib\\site-packages\\numpy\\lib\\_shape_base_impl.py',
   'PYMODULE'),
  ('numpy.lib._stride_tricks_impl',
   'C:\\Program '
   'Files\\Python312\\Lib\\site-packages\\numpy\\lib\\_stride_tricks_impl.py',
   'PYMODULE'),
  ('numpy.lib._twodim_base_impl',
   'C:\\Program '
   'Files\\Python312\\Lib\\site-packages\\numpy\\lib\\_twodim_base_impl.py',
   'PYMODULE'),
  ('numpy.lib._type_check_impl',
   'C:\\Program '
   'Files\\Python312\\Lib\\site-packages\\numpy\\lib\\_type_check_impl.py',
   'PYMODULE'),
  ('numpy.lib._ufunclike_impl',
   'C:\\Program '
   'Files\\Python312\\Lib\\site-packages\\numpy\\lib\\_ufunclike_impl.py',
   'PYMODULE'),
  ('numpy.lib._utils_impl',
   'C:\\Program '
   'Files\\Python312\\Lib\\site-packages\\numpy\\lib\\_utils_impl.py',
   'PYMODULE'),
  ('numpy.lib._version',
   'C:\\Program Files\\Python312\\Lib\\site-packages\\numpy\\lib\\_version.py',
   'PYMODULE'),
  ('numpy.lib.array_utils',
   'C:\\Program '
   'Files\\Python312\\Lib\\site-packages\\numpy\\lib\\array_utils.py',
   'PYMODULE'),
  ('numpy.lib.format',
   'C:\\Program Files\\Python312\\Lib\\site-packages\\numpy\\lib\\format.py',
   'PYMODULE'),
  ('numpy.lib.introspect',
   'C:\\Program '
   'Files\\Python312\\Lib\\site-packages\\numpy\\lib\\introspect.py',
   'PYMODULE'),
  ('numpy.lib.mixins',
   'C:\\Program Files\\Python312\\Lib\\site-packages\\numpy\\lib\\mixins.py',
   'PYMODULE'),
  ('numpy.lib.npyio',
   'C:\\Program Files\\Python312\\Lib\\site-packages\\numpy\\lib\\npyio.py',
   'PYMODULE'),
  ('numpy.lib.recfunctions',
   'C:\\Program '
   'Files\\Python312\\Lib\\site-packages\\numpy\\lib\\recfunctions.py',
   'PYMODULE'),
  ('numpy.lib.scimath',
   'C:\\Program Files\\Python312\\Lib\\site-packages\\numpy\\lib\\scimath.py',
   'PYMODULE'),
  ('numpy.lib.stride_tricks',
   'C:\\Program '
   'Files\\Python312\\Lib\\site-packages\\numpy\\lib\\stride_tricks.py',
   'PYMODULE'),
  ('numpy.linalg',
   'C:\\Program '
   'Files\\Python312\\Lib\\site-packages\\numpy\\linalg\\__init__.py',
   'PYMODULE'),
  ('numpy.linalg._linalg',
   'C:\\Program '
   'Files\\Python312\\Lib\\site-packages\\numpy\\linalg\\_linalg.py',
   'PYMODULE'),
  ('numpy.linalg.linalg',
   'C:\\Program Files\\Python312\\Lib\\site-packages\\numpy\\linalg\\linalg.py',
   'PYMODULE'),
  ('numpy.ma',
   'C:\\Program Files\\Python312\\Lib\\site-packages\\numpy\\ma\\__init__.py',
   'PYMODULE'),
  ('numpy.ma.core',
   'C:\\Program Files\\Python312\\Lib\\site-packages\\numpy\\ma\\core.py',
   'PYMODULE'),
  ('numpy.ma.extras',
   'C:\\Program Files\\Python312\\Lib\\site-packages\\numpy\\ma\\extras.py',
   'PYMODULE'),
  ('numpy.ma.mrecords',
   'C:\\Program Files\\Python312\\Lib\\site-packages\\numpy\\ma\\mrecords.py',
   'PYMODULE'),
  ('numpy.matlib',
   'C:\\Program Files\\Python312\\Lib\\site-packages\\numpy\\matlib.py',
   'PYMODULE'),
  ('numpy.matrixlib',
   'C:\\Program '
   'Files\\Python312\\Lib\\site-packages\\numpy\\matrixlib\\__init__.py',
   'PYMODULE'),
  ('numpy.matrixlib.defmatrix',
   'C:\\Program '
   'Files\\Python312\\Lib\\site-packages\\numpy\\matrixlib\\defmatrix.py',
   'PYMODULE'),
  ('numpy.polynomial',
   'C:\\Program '
   'Files\\Python312\\Lib\\site-packages\\numpy\\polynomial\\__init__.py',
   'PYMODULE'),
  ('numpy.polynomial._polybase',
   'C:\\Program '
   'Files\\Python312\\Lib\\site-packages\\numpy\\polynomial\\_polybase.py',
   'PYMODULE'),
  ('numpy.polynomial.chebyshev',
   'C:\\Program '
   'Files\\Python312\\Lib\\site-packages\\numpy\\polynomial\\chebyshev.py',
   'PYMODULE'),
  ('numpy.polynomial.hermite',
   'C:\\Program '
   'Files\\Python312\\Lib\\site-packages\\numpy\\polynomial\\hermite.py',
   'PYMODULE'),
  ('numpy.polynomial.hermite_e',
   'C:\\Program '
   'Files\\Python312\\Lib\\site-packages\\numpy\\polynomial\\hermite_e.py',
   'PYMODULE'),
  ('numpy.polynomial.laguerre',
   'C:\\Program '
   'Files\\Python312\\Lib\\site-packages\\numpy\\polynomial\\laguerre.py',
   'PYMODULE'),
  ('numpy.polynomial.legendre',
   'C:\\Program '
   'Files\\Python312\\Lib\\site-packages\\numpy\\polynomial\\legendre.py',
   'PYMODULE'),
  ('numpy.polynomial.polynomial',
   'C:\\Program '
   'Files\\Python312\\Lib\\site-packages\\numpy\\polynomial\\polynomial.py',
   'PYMODULE'),
  ('numpy.polynomial.polyutils',
   'C:\\Program '
   'Files\\Python312\\Lib\\site-packages\\numpy\\polynomial\\polyutils.py',
   'PYMODULE'),
  ('numpy.random',
   'C:\\Program '
   'Files\\Python312\\Lib\\site-packages\\numpy\\random\\__init__.py',
   'PYMODULE'),
  ('numpy.random._pickle',
   'C:\\Program '
   'Files\\Python312\\Lib\\site-packages\\numpy\\random\\_pickle.py',
   'PYMODULE'),
  ('numpy.rec',
   'C:\\Program Files\\Python312\\Lib\\site-packages\\numpy\\rec\\__init__.py',
   'PYMODULE'),
  ('numpy.strings',
   'C:\\Program '
   'Files\\Python312\\Lib\\site-packages\\numpy\\strings\\__init__.py',
   'PYMODULE'),
  ('numpy.testing',
   'C:\\Program '
   'Files\\Python312\\Lib\\site-packages\\numpy\\testing\\__init__.py',
   'PYMODULE'),
  ('numpy.testing._private',
   'C:\\Program '
   'Files\\Python312\\Lib\\site-packages\\numpy\\testing\\_private\\__init__.py',
   'PYMODULE'),
  ('numpy.testing._private.extbuild',
   'C:\\Program '
   'Files\\Python312\\Lib\\site-packages\\numpy\\testing\\_private\\extbuild.py',
   'PYMODULE'),
  ('numpy.testing._private.utils',
   'C:\\Program '
   'Files\\Python312\\Lib\\site-packages\\numpy\\testing\\_private\\utils.py',
   'PYMODULE'),
  ('numpy.testing.overrides',
   'C:\\Program '
   'Files\\Python312\\Lib\\site-packages\\numpy\\testing\\overrides.py',
   'PYMODULE'),
  ('numpy.typing',
   'C:\\Program '
   'Files\\Python312\\Lib\\site-packages\\numpy\\typing\\__init__.py',
   'PYMODULE'),
  ('numpy.version',
   'C:\\Program Files\\Python312\\Lib\\site-packages\\numpy\\version.py',
   'PYMODULE'),
  ('opcode', 'C:\\Program Files\\Python312\\Lib\\opcode.py', 'PYMODULE'),
  ('optparse', 'C:\\Program Files\\Python312\\Lib\\optparse.py', 'PYMODULE'),
  ('pathlib', 'C:\\Program Files\\Python312\\Lib\\pathlib.py', 'PYMODULE'),
  ('pdb', 'C:\\Program Files\\Python312\\Lib\\pdb.py', 'PYMODULE'),
  ('pickle', 'C:\\Program Files\\Python312\\Lib\\pickle.py', 'PYMODULE'),
  ('pkgutil', 'C:\\Program Files\\Python312\\Lib\\pkgutil.py', 'PYMODULE'),
  ('platform', 'C:\\Program Files\\Python312\\Lib\\platform.py', 'PYMODULE'),
  ('pprint', 'C:\\Program Files\\Python312\\Lib\\pprint.py', 'PYMODULE'),
  ('profile', 'C:\\Program Files\\Python312\\Lib\\profile.py', 'PYMODULE'),
  ('pstats', 'C:\\Program Files\\Python312\\Lib\\pstats.py', 'PYMODULE'),
  ('py_compile',
   'C:\\Program Files\\Python312\\Lib\\py_compile.py',
   'PYMODULE'),
  ('pydoc', 'C:\\Program Files\\Python312\\Lib\\pydoc.py', 'PYMODULE'),
  ('pydoc_data',
   'C:\\Program Files\\Python312\\Lib\\pydoc_data\\__init__.py',
   'PYMODULE'),
  ('pydoc_data.topics',
   'C:\\Program Files\\Python312\\Lib\\pydoc_data\\topics.py',
   'PYMODULE'),
  ('pyqtgraph',
   'C:\\Program Files\\Python312\\Lib\\site-packages\\pyqtgraph\\__init__.py',
   'PYMODULE'),
  ('pyqtgraph.GraphicsScene',
   'C:\\Program '
   'Files\\Python312\\Lib\\site-packages\\pyqtgraph\\GraphicsScene\\__init__.py',
   'PYMODULE'),
  ('pyqtgraph.GraphicsScene.GraphicsScene',
   'C:\\Program '
   'Files\\Python312\\Lib\\site-packages\\pyqtgraph\\GraphicsScene\\GraphicsScene.py',
   'PYMODULE'),
  ('pyqtgraph.GraphicsScene.exportDialog',
   'C:\\Program '
   'Files\\Python312\\Lib\\site-packages\\pyqtgraph\\GraphicsScene\\exportDialog.py',
   'PYMODULE'),
  ('pyqtgraph.GraphicsScene.exportDialogTemplate_generic',
   'C:\\Program '
   'Files\\Python312\\Lib\\site-packages\\pyqtgraph\\GraphicsScene\\exportDialogTemplate_generic.py',
   'PYMODULE'),
  ('pyqtgraph.GraphicsScene.mouseEvents',
   'C:\\Program '
   'Files\\Python312\\Lib\\site-packages\\pyqtgraph\\GraphicsScene\\mouseEvents.py',
   'PYMODULE'),
  ('pyqtgraph.Point',
   'C:\\Program Files\\Python312\\Lib\\site-packages\\pyqtgraph\\Point.py',
   'PYMODULE'),
  ('pyqtgraph.Qt',
   'C:\\Program '
   'Files\\Python312\\Lib\\site-packages\\pyqtgraph\\Qt\\__init__.py',
   'PYMODULE'),
  ('pyqtgraph.Qt.QtCore',
   'C:\\Program '
   'Files\\Python312\\Lib\\site-packages\\pyqtgraph\\Qt\\QtCore\\__init__.py',
   'PYMODULE'),
  ('pyqtgraph.Qt.QtGui',
   'C:\\Program '
   'Files\\Python312\\Lib\\site-packages\\pyqtgraph\\Qt\\QtGui\\__init__.py',
   'PYMODULE'),
  ('pyqtgraph.Qt.QtWidgets',
   'C:\\Program '
   'Files\\Python312\\Lib\\site-packages\\pyqtgraph\\Qt\\QtWidgets\\__init__.py',
   'PYMODULE'),
  ('pyqtgraph.Qt.compat',
   'C:\\Program '
   'Files\\Python312\\Lib\\site-packages\\pyqtgraph\\Qt\\compat\\__init__.py',
   'PYMODULE'),
  ('pyqtgraph.Qt.internals',
   'C:\\Program '
   'Files\\Python312\\Lib\\site-packages\\pyqtgraph\\Qt\\internals.py',
   'PYMODULE'),
  ('pyqtgraph.SRTTransform',
   'C:\\Program '
   'Files\\Python312\\Lib\\site-packages\\pyqtgraph\\SRTTransform.py',
   'PYMODULE'),
  ('pyqtgraph.SRTTransform3D',
   'C:\\Program '
   'Files\\Python312\\Lib\\site-packages\\pyqtgraph\\SRTTransform3D.py',
   'PYMODULE'),
  ('pyqtgraph.SignalProxy',
   'C:\\Program '
   'Files\\Python312\\Lib\\site-packages\\pyqtgraph\\SignalProxy.py',
   'PYMODULE'),
  ('pyqtgraph.ThreadsafeTimer',
   'C:\\Program '
   'Files\\Python312\\Lib\\site-packages\\pyqtgraph\\ThreadsafeTimer.py',
   'PYMODULE'),
  ('pyqtgraph.Transform3D',
   'C:\\Program '
   'Files\\Python312\\Lib\\site-packages\\pyqtgraph\\Transform3D.py',
   'PYMODULE'),
  ('pyqtgraph.Vector',
   'C:\\Program Files\\Python312\\Lib\\site-packages\\pyqtgraph\\Vector.py',
   'PYMODULE'),
  ('pyqtgraph.WidgetGroup',
   'C:\\Program '
   'Files\\Python312\\Lib\\site-packages\\pyqtgraph\\WidgetGroup.py',
   'PYMODULE'),
  ('pyqtgraph.canvas',
   'C:\\Program '
   'Files\\Python312\\Lib\\site-packages\\pyqtgraph\\canvas\\__init__.py',
   'PYMODULE'),
  ('pyqtgraph.canvas.Canvas',
   'C:\\Program '
   'Files\\Python312\\Lib\\site-packages\\pyqtgraph\\canvas\\Canvas.py',
   'PYMODULE'),
  ('pyqtgraph.canvas.CanvasItem',
   'C:\\Program '
   'Files\\Python312\\Lib\\site-packages\\pyqtgraph\\canvas\\CanvasItem.py',
   'PYMODULE'),
  ('pyqtgraph.canvas.CanvasManager',
   'C:\\Program '
   'Files\\Python312\\Lib\\site-packages\\pyqtgraph\\canvas\\CanvasManager.py',
   'PYMODULE'),
  ('pyqtgraph.canvas.CanvasTemplate_generic',
   'C:\\Program '
   'Files\\Python312\\Lib\\site-packages\\pyqtgraph\\canvas\\CanvasTemplate_generic.py',
   'PYMODULE'),
  ('pyqtgraph.canvas.TransformGuiTemplate_generic',
   'C:\\Program '
   'Files\\Python312\\Lib\\site-packages\\pyqtgraph\\canvas\\TransformGuiTemplate_generic.py',
   'PYMODULE'),
  ('pyqtgraph.colormap',
   'C:\\Program Files\\Python312\\Lib\\site-packages\\pyqtgraph\\colormap.py',
   'PYMODULE'),
  ('pyqtgraph.colors',
   'C:\\Program '
   'Files\\Python312\\Lib\\site-packages\\pyqtgraph\\colors\\__init__.py',
   'PYMODULE'),
  ('pyqtgraph.colors.palette',
   'C:\\Program '
   'Files\\Python312\\Lib\\site-packages\\pyqtgraph\\colors\\palette.py',
   'PYMODULE'),
  ('pyqtgraph.configfile',
   'C:\\Program Files\\Python312\\Lib\\site-packages\\pyqtgraph\\configfile.py',
   'PYMODULE'),
  ('pyqtgraph.console',
   'C:\\Program '
   'Files\\Python312\\Lib\\site-packages\\pyqtgraph\\console\\__init__.py',
   'PYMODULE'),
  ('pyqtgraph.console.CmdInput',
   'C:\\Program '
   'Files\\Python312\\Lib\\site-packages\\pyqtgraph\\console\\CmdInput.py',
   'PYMODULE'),
  ('pyqtgraph.console.Console',
   'C:\\Program '
   'Files\\Python312\\Lib\\site-packages\\pyqtgraph\\console\\Console.py',
   'PYMODULE'),
  ('pyqtgraph.console.exception_widget',
   'C:\\Program '
   'Files\\Python312\\Lib\\site-packages\\pyqtgraph\\console\\exception_widget.py',
   'PYMODULE'),
  ('pyqtgraph.console.repl_widget',
   'C:\\Program '
   'Files\\Python312\\Lib\\site-packages\\pyqtgraph\\console\\repl_widget.py',
   'PYMODULE'),
  ('pyqtgraph.console.stackwidget',
   'C:\\Program '
   'Files\\Python312\\Lib\\site-packages\\pyqtgraph\\console\\stackwidget.py',
   'PYMODULE'),
  ('pyqtgraph.debug',
   'C:\\Program Files\\Python312\\Lib\\site-packages\\pyqtgraph\\debug.py',
   'PYMODULE'),
  ('pyqtgraph.dockarea',
   'C:\\Program '
   'Files\\Python312\\Lib\\site-packages\\pyqtgraph\\dockarea\\__init__.py',
   'PYMODULE'),
  ('pyqtgraph.dockarea.Container',
   'C:\\Program '
   'Files\\Python312\\Lib\\site-packages\\pyqtgraph\\dockarea\\Container.py',
   'PYMODULE'),
  ('pyqtgraph.dockarea.Dock',
   'C:\\Program '
   'Files\\Python312\\Lib\\site-packages\\pyqtgraph\\dockarea\\Dock.py',
   'PYMODULE'),
  ('pyqtgraph.dockarea.DockArea',
   'C:\\Program '
   'Files\\Python312\\Lib\\site-packages\\pyqtgraph\\dockarea\\DockArea.py',
   'PYMODULE'),
  ('pyqtgraph.dockarea.DockDrop',
   'C:\\Program '
   'Files\\Python312\\Lib\\site-packages\\pyqtgraph\\dockarea\\DockDrop.py',
   'PYMODULE'),
  ('pyqtgraph.exceptionHandling',
   'C:\\Program '
   'Files\\Python312\\Lib\\site-packages\\pyqtgraph\\exceptionHandling.py',
   'PYMODULE'),
  ('pyqtgraph.exporters',
   'C:\\Program '
   'Files\\Python312\\Lib\\site-packages\\pyqtgraph\\exporters\\__init__.py',
   'PYMODULE'),
  ('pyqtgraph.exporters.CSVExporter',
   'C:\\Program '
   'Files\\Python312\\Lib\\site-packages\\pyqtgraph\\exporters\\CSVExporter.py',
   'PYMODULE'),
  ('pyqtgraph.exporters.Exporter',
   'C:\\Program '
   'Files\\Python312\\Lib\\site-packages\\pyqtgraph\\exporters\\Exporter.py',
   'PYMODULE'),
  ('pyqtgraph.exporters.HDF5Exporter',
   'C:\\Program '
   'Files\\Python312\\Lib\\site-packages\\pyqtgraph\\exporters\\HDF5Exporter.py',
   'PYMODULE'),
  ('pyqtgraph.exporters.ImageExporter',
   'C:\\Program '
   'Files\\Python312\\Lib\\site-packages\\pyqtgraph\\exporters\\ImageExporter.py',
   'PYMODULE'),
  ('pyqtgraph.exporters.Matplotlib',
   'C:\\Program '
   'Files\\Python312\\Lib\\site-packages\\pyqtgraph\\exporters\\Matplotlib.py',
   'PYMODULE'),
  ('pyqtgraph.exporters.PrintExporter',
   'C:\\Program '
   'Files\\Python312\\Lib\\site-packages\\pyqtgraph\\exporters\\PrintExporter.py',
   'PYMODULE'),
  ('pyqtgraph.exporters.SVGExporter',
   'C:\\Program '
   'Files\\Python312\\Lib\\site-packages\\pyqtgraph\\exporters\\SVGExporter.py',
   'PYMODULE'),
  ('pyqtgraph.flowchart',
   'C:\\Program '
   'Files\\Python312\\Lib\\site-packages\\pyqtgraph\\flowchart\\__init__.py',
   'PYMODULE'),
  ('pyqtgraph.flowchart.Flowchart',
   'C:\\Program '
   'Files\\Python312\\Lib\\site-packages\\pyqtgraph\\flowchart\\Flowchart.py',
   'PYMODULE'),
  ('pyqtgraph.flowchart.FlowchartCtrlTemplate_generic',
   'C:\\Program '
   'Files\\Python312\\Lib\\site-packages\\pyqtgraph\\flowchart\\FlowchartCtrlTemplate_generic.py',
   'PYMODULE'),
  ('pyqtgraph.flowchart.FlowchartGraphicsView',
   'C:\\Program '
   'Files\\Python312\\Lib\\site-packages\\pyqtgraph\\flowchart\\FlowchartGraphicsView.py',
   'PYMODULE'),
  ('pyqtgraph.flowchart.Node',
   'C:\\Program '
   'Files\\Python312\\Lib\\site-packages\\pyqtgraph\\flowchart\\Node.py',
   'PYMODULE'),
  ('pyqtgraph.flowchart.NodeLibrary',
   'C:\\Program '
   'Files\\Python312\\Lib\\site-packages\\pyqtgraph\\flowchart\\NodeLibrary.py',
   'PYMODULE'),
  ('pyqtgraph.flowchart.Terminal',
   'C:\\Program '
   'Files\\Python312\\Lib\\site-packages\\pyqtgraph\\flowchart\\Terminal.py',
   'PYMODULE'),
  ('pyqtgraph.flowchart.library',
   'C:\\Program '
   'Files\\Python312\\Lib\\site-packages\\pyqtgraph\\flowchart\\library\\__init__.py',
   'PYMODULE'),
  ('pyqtgraph.flowchart.library.Data',
   'C:\\Program '
   'Files\\Python312\\Lib\\site-packages\\pyqtgraph\\flowchart\\library\\Data.py',
   'PYMODULE'),
  ('pyqtgraph.flowchart.library.Display',
   'C:\\Program '
   'Files\\Python312\\Lib\\site-packages\\pyqtgraph\\flowchart\\library\\Display.py',
   'PYMODULE'),
  ('pyqtgraph.flowchart.library.Filters',
   'C:\\Program '
   'Files\\Python312\\Lib\\site-packages\\pyqtgraph\\flowchart\\library\\Filters.py',
   'PYMODULE'),
  ('pyqtgraph.flowchart.library.Operators',
   'C:\\Program '
   'Files\\Python312\\Lib\\site-packages\\pyqtgraph\\flowchart\\library\\Operators.py',
   'PYMODULE'),
  ('pyqtgraph.flowchart.library.common',
   'C:\\Program '
   'Files\\Python312\\Lib\\site-packages\\pyqtgraph\\flowchart\\library\\common.py',
   'PYMODULE'),
  ('pyqtgraph.flowchart.library.functions',
   'C:\\Program '
   'Files\\Python312\\Lib\\site-packages\\pyqtgraph\\flowchart\\library\\functions.py',
   'PYMODULE'),
  ('pyqtgraph.functions',
   'C:\\Program Files\\Python312\\Lib\\site-packages\\pyqtgraph\\functions.py',
   'PYMODULE'),
  ('pyqtgraph.functions_numba',
   'C:\\Program '
   'Files\\Python312\\Lib\\site-packages\\pyqtgraph\\functions_numba.py',
   'PYMODULE'),
  ('pyqtgraph.functions_qimage',
   'C:\\Program '
   'Files\\Python312\\Lib\\site-packages\\pyqtgraph\\functions_qimage.py',
   'PYMODULE'),
  ('pyqtgraph.graphicsItems',
   'C:\\Program '
   'Files\\Python312\\Lib\\site-packages\\pyqtgraph\\graphicsItems\\__init__.py',
   'PYMODULE'),
  ('pyqtgraph.graphicsItems.ArrowItem',
   'C:\\Program '
   'Files\\Python312\\Lib\\site-packages\\pyqtgraph\\graphicsItems\\ArrowItem.py',
   'PYMODULE'),
  ('pyqtgraph.graphicsItems.AxisItem',
   'C:\\Program '
   'Files\\Python312\\Lib\\site-packages\\pyqtgraph\\graphicsItems\\AxisItem.py',
   'PYMODULE'),
  ('pyqtgraph.graphicsItems.BarGraphItem',
   'C:\\Program '
   'Files\\Python312\\Lib\\site-packages\\pyqtgraph\\graphicsItems\\BarGraphItem.py',
   'PYMODULE'),
  ('pyqtgraph.graphicsItems.ButtonItem',
   'C:\\Program '
   'Files\\Python312\\Lib\\site-packages\\pyqtgraph\\graphicsItems\\ButtonItem.py',
   'PYMODULE'),
  ('pyqtgraph.graphicsItems.ColorBarItem',
   'C:\\Program '
   'Files\\Python312\\Lib\\site-packages\\pyqtgraph\\graphicsItems\\ColorBarItem.py',
   'PYMODULE'),
  ('pyqtgraph.graphicsItems.CurvePoint',
   'C:\\Program '
   'Files\\Python312\\Lib\\site-packages\\pyqtgraph\\graphicsItems\\CurvePoint.py',
   'PYMODULE'),
  ('pyqtgraph.graphicsItems.DateAxisItem',
   'C:\\Program '
   'Files\\Python312\\Lib\\site-packages\\pyqtgraph\\graphicsItems\\DateAxisItem.py',
   'PYMODULE'),
  ('pyqtgraph.graphicsItems.ErrorBarItem',
   'C:\\Program '
   'Files\\Python312\\Lib\\site-packages\\pyqtgraph\\graphicsItems\\ErrorBarItem.py',
   'PYMODULE'),
  ('pyqtgraph.graphicsItems.FillBetweenItem',
   'C:\\Program '
   'Files\\Python312\\Lib\\site-packages\\pyqtgraph\\graphicsItems\\FillBetweenItem.py',
   'PYMODULE'),
  ('pyqtgraph.graphicsItems.GradientEditorItem',
   'C:\\Program '
   'Files\\Python312\\Lib\\site-packages\\pyqtgraph\\graphicsItems\\GradientEditorItem.py',
   'PYMODULE'),
  ('pyqtgraph.graphicsItems.GradientLegend',
   'C:\\Program '
   'Files\\Python312\\Lib\\site-packages\\pyqtgraph\\graphicsItems\\GradientLegend.py',
   'PYMODULE'),
  ('pyqtgraph.graphicsItems.GradientPresets',
   'C:\\Program '
   'Files\\Python312\\Lib\\site-packages\\pyqtgraph\\graphicsItems\\GradientPresets.py',
   'PYMODULE'),
  ('pyqtgraph.graphicsItems.GraphItem',
   'C:\\Program '
   'Files\\Python312\\Lib\\site-packages\\pyqtgraph\\graphicsItems\\GraphItem.py',
   'PYMODULE'),
  ('pyqtgraph.graphicsItems.GraphicsItem',
   'C:\\Program '
   'Files\\Python312\\Lib\\site-packages\\pyqtgraph\\graphicsItems\\GraphicsItem.py',
   'PYMODULE'),
  ('pyqtgraph.graphicsItems.GraphicsLayout',
   'C:\\Program '
   'Files\\Python312\\Lib\\site-packages\\pyqtgraph\\graphicsItems\\GraphicsLayout.py',
   'PYMODULE'),
  ('pyqtgraph.graphicsItems.GraphicsObject',
   'C:\\Program '
   'Files\\Python312\\Lib\\site-packages\\pyqtgraph\\graphicsItems\\GraphicsObject.py',
   'PYMODULE'),
  ('pyqtgraph.graphicsItems.GraphicsWidget',
   'C:\\Program '
   'Files\\Python312\\Lib\\site-packages\\pyqtgraph\\graphicsItems\\GraphicsWidget.py',
   'PYMODULE'),
  ('pyqtgraph.graphicsItems.GraphicsWidgetAnchor',
   'C:\\Program '
   'Files\\Python312\\Lib\\site-packages\\pyqtgraph\\graphicsItems\\GraphicsWidgetAnchor.py',
   'PYMODULE'),
  ('pyqtgraph.graphicsItems.GridItem',
   'C:\\Program '
   'Files\\Python312\\Lib\\site-packages\\pyqtgraph\\graphicsItems\\GridItem.py',
   'PYMODULE'),
  ('pyqtgraph.graphicsItems.HistogramLUTItem',
   'C:\\Program '
   'Files\\Python312\\Lib\\site-packages\\pyqtgraph\\graphicsItems\\HistogramLUTItem.py',
   'PYMODULE'),
  ('pyqtgraph.graphicsItems.ImageItem',
   'C:\\Program '
   'Files\\Python312\\Lib\\site-packages\\pyqtgraph\\graphicsItems\\ImageItem.py',
   'PYMODULE'),
  ('pyqtgraph.graphicsItems.InfiniteLine',
   'C:\\Program '
   'Files\\Python312\\Lib\\site-packages\\pyqtgraph\\graphicsItems\\InfiniteLine.py',
   'PYMODULE'),
  ('pyqtgraph.graphicsItems.IsocurveItem',
   'C:\\Program '
   'Files\\Python312\\Lib\\site-packages\\pyqtgraph\\graphicsItems\\IsocurveItem.py',
   'PYMODULE'),
  ('pyqtgraph.graphicsItems.ItemGroup',
   'C:\\Program '
   'Files\\Python312\\Lib\\site-packages\\pyqtgraph\\graphicsItems\\ItemGroup.py',
   'PYMODULE'),
  ('pyqtgraph.graphicsItems.LabelItem',
   'C:\\Program '
   'Files\\Python312\\Lib\\site-packages\\pyqtgraph\\graphicsItems\\LabelItem.py',
   'PYMODULE'),
  ('pyqtgraph.graphicsItems.LegendItem',
   'C:\\Program '
   'Files\\Python312\\Lib\\site-packages\\pyqtgraph\\graphicsItems\\LegendItem.py',
   'PYMODULE'),
  ('pyqtgraph.graphicsItems.LinearRegionItem',
   'C:\\Program '
   'Files\\Python312\\Lib\\site-packages\\pyqtgraph\\graphicsItems\\LinearRegionItem.py',
   'PYMODULE'),
  ('pyqtgraph.graphicsItems.MultiPlotItem',
   'C:\\Program '
   'Files\\Python312\\Lib\\site-packages\\pyqtgraph\\graphicsItems\\MultiPlotItem.py',
   'PYMODULE'),
  ('pyqtgraph.graphicsItems.PColorMeshItem',
   'C:\\Program '
   'Files\\Python312\\Lib\\site-packages\\pyqtgraph\\graphicsItems\\PColorMeshItem.py',
   'PYMODULE'),
  ('pyqtgraph.graphicsItems.PlotCurveItem',
   'C:\\Program '
   'Files\\Python312\\Lib\\site-packages\\pyqtgraph\\graphicsItems\\PlotCurveItem.py',
   'PYMODULE'),
  ('pyqtgraph.graphicsItems.PlotDataItem',
   'C:\\Program '
   'Files\\Python312\\Lib\\site-packages\\pyqtgraph\\graphicsItems\\PlotDataItem.py',
   'PYMODULE'),
  ('pyqtgraph.graphicsItems.PlotItem',
   'C:\\Program '
   'Files\\Python312\\Lib\\site-packages\\pyqtgraph\\graphicsItems\\PlotItem\\__init__.py',
   'PYMODULE'),
  ('pyqtgraph.graphicsItems.PlotItem.PlotItem',
   'C:\\Program '
   'Files\\Python312\\Lib\\site-packages\\pyqtgraph\\graphicsItems\\PlotItem\\PlotItem.py',
   'PYMODULE'),
  ('pyqtgraph.graphicsItems.PlotItem.plotConfigTemplate_generic',
   'C:\\Program '
   'Files\\Python312\\Lib\\site-packages\\pyqtgraph\\graphicsItems\\PlotItem\\plotConfigTemplate_generic.py',
   'PYMODULE'),
  ('pyqtgraph.graphicsItems.ROI',
   'C:\\Program '
   'Files\\Python312\\Lib\\site-packages\\pyqtgraph\\graphicsItems\\ROI.py',
   'PYMODULE'),
  ('pyqtgraph.graphicsItems.ScaleBar',
   'C:\\Program '
   'Files\\Python312\\Lib\\site-packages\\pyqtgraph\\graphicsItems\\ScaleBar.py',
   'PYMODULE'),
  ('pyqtgraph.graphicsItems.ScatterPlotItem',
   'C:\\Program '
   'Files\\Python312\\Lib\\site-packages\\pyqtgraph\\graphicsItems\\ScatterPlotItem.py',
   'PYMODULE'),
  ('pyqtgraph.graphicsItems.TargetItem',
   'C:\\Program '
   'Files\\Python312\\Lib\\site-packages\\pyqtgraph\\graphicsItems\\TargetItem.py',
   'PYMODULE'),
  ('pyqtgraph.graphicsItems.TextItem',
   'C:\\Program '
   'Files\\Python312\\Lib\\site-packages\\pyqtgraph\\graphicsItems\\TextItem.py',
   'PYMODULE'),
  ('pyqtgraph.graphicsItems.UIGraphicsItem',
   'C:\\Program '
   'Files\\Python312\\Lib\\site-packages\\pyqtgraph\\graphicsItems\\UIGraphicsItem.py',
   'PYMODULE'),
  ('pyqtgraph.graphicsItems.VTickGroup',
   'C:\\Program '
   'Files\\Python312\\Lib\\site-packages\\pyqtgraph\\graphicsItems\\VTickGroup.py',
   'PYMODULE'),
  ('pyqtgraph.graphicsItems.ViewBox',
   'C:\\Program '
   'Files\\Python312\\Lib\\site-packages\\pyqtgraph\\graphicsItems\\ViewBox\\__init__.py',
   'PYMODULE'),
  ('pyqtgraph.graphicsItems.ViewBox.ViewBox',
   'C:\\Program '
   'Files\\Python312\\Lib\\site-packages\\pyqtgraph\\graphicsItems\\ViewBox\\ViewBox.py',
   'PYMODULE'),
  ('pyqtgraph.graphicsItems.ViewBox.ViewBoxMenu',
   'C:\\Program '
   'Files\\Python312\\Lib\\site-packages\\pyqtgraph\\graphicsItems\\ViewBox\\ViewBoxMenu.py',
   'PYMODULE'),
  ('pyqtgraph.graphicsItems.ViewBox.axisCtrlTemplate_generic',
   'C:\\Program '
   'Files\\Python312\\Lib\\site-packages\\pyqtgraph\\graphicsItems\\ViewBox\\axisCtrlTemplate_generic.py',
   'PYMODULE'),
  ('pyqtgraph.icons',
   'C:\\Program '
   'Files\\Python312\\Lib\\site-packages\\pyqtgraph\\icons\\__init__.py',
   'PYMODULE'),
  ('pyqtgraph.imageview',
   'C:\\Program '
   'Files\\Python312\\Lib\\site-packages\\pyqtgraph\\imageview\\__init__.py',
   'PYMODULE'),
  ('pyqtgraph.imageview.ImageView',
   'C:\\Program '
   'Files\\Python312\\Lib\\site-packages\\pyqtgraph\\imageview\\ImageView.py',
   'PYMODULE'),
  ('pyqtgraph.imageview.ImageViewTemplate_generic',
   'C:\\Program '
   'Files\\Python312\\Lib\\site-packages\\pyqtgraph\\imageview\\ImageViewTemplate_generic.py',
   'PYMODULE'),
  ('pyqtgraph.metaarray',
   'C:\\Program '
   'Files\\Python312\\Lib\\site-packages\\pyqtgraph\\metaarray\\__init__.py',
   'PYMODULE'),
  ('pyqtgraph.metaarray.MetaArray',
   'C:\\Program '
   'Files\\Python312\\Lib\\site-packages\\pyqtgraph\\metaarray\\MetaArray.py',
   'PYMODULE'),
  ('pyqtgraph.multiprocess',
   'C:\\Program '
   'Files\\Python312\\Lib\\site-packages\\pyqtgraph\\multiprocess\\__init__.py',
   'PYMODULE'),
  ('pyqtgraph.multiprocess.bootstrap',
   'C:\\Program '
   'Files\\Python312\\Lib\\site-packages\\pyqtgraph\\multiprocess\\bootstrap.py',
   'PYMODULE'),
  ('pyqtgraph.multiprocess.parallelizer',
   'C:\\Program '
   'Files\\Python312\\Lib\\site-packages\\pyqtgraph\\multiprocess\\parallelizer.py',
   'PYMODULE'),
  ('pyqtgraph.multiprocess.processes',
   'C:\\Program '
   'Files\\Python312\\Lib\\site-packages\\pyqtgraph\\multiprocess\\processes.py',
   'PYMODULE'),
  ('pyqtgraph.multiprocess.remoteproxy',
   'C:\\Program '
   'Files\\Python312\\Lib\\site-packages\\pyqtgraph\\multiprocess\\remoteproxy.py',
   'PYMODULE'),
  ('pyqtgraph.parametertree',
   'C:\\Program '
   'Files\\Python312\\Lib\\site-packages\\pyqtgraph\\parametertree\\__init__.py',
   'PYMODULE'),
  ('pyqtgraph.parametertree.Parameter',
   'C:\\Program '
   'Files\\Python312\\Lib\\site-packages\\pyqtgraph\\parametertree\\Parameter.py',
   'PYMODULE'),
  ('pyqtgraph.parametertree.ParameterItem',
   'C:\\Program '
   'Files\\Python312\\Lib\\site-packages\\pyqtgraph\\parametertree\\ParameterItem.py',
   'PYMODULE'),
  ('pyqtgraph.parametertree.ParameterSystem',
   'C:\\Program '
   'Files\\Python312\\Lib\\site-packages\\pyqtgraph\\parametertree\\ParameterSystem.py',
   'PYMODULE'),
  ('pyqtgraph.parametertree.ParameterTree',
   'C:\\Program '
   'Files\\Python312\\Lib\\site-packages\\pyqtgraph\\parametertree\\ParameterTree.py',
   'PYMODULE'),
  ('pyqtgraph.parametertree.SystemSolver',
   'C:\\Program '
   'Files\\Python312\\Lib\\site-packages\\pyqtgraph\\parametertree\\SystemSolver.py',
   'PYMODULE'),
  ('pyqtgraph.parametertree.interactive',
   'C:\\Program '
   'Files\\Python312\\Lib\\site-packages\\pyqtgraph\\parametertree\\interactive.py',
   'PYMODULE'),
  ('pyqtgraph.parametertree.parameterTypes',
   'C:\\Program '
   'Files\\Python312\\Lib\\site-packages\\pyqtgraph\\parametertree\\parameterTypes\\__init__.py',
   'PYMODULE'),
  ('pyqtgraph.parametertree.parameterTypes.action',
   'C:\\Program '
   'Files\\Python312\\Lib\\site-packages\\pyqtgraph\\parametertree\\parameterTypes\\action.py',
   'PYMODULE'),
  ('pyqtgraph.parametertree.parameterTypes.actiongroup',
   'C:\\Program '
   'Files\\Python312\\Lib\\site-packages\\pyqtgraph\\parametertree\\parameterTypes\\actiongroup.py',
   'PYMODULE'),
  ('pyqtgraph.parametertree.parameterTypes.basetypes',
   'C:\\Program '
   'Files\\Python312\\Lib\\site-packages\\pyqtgraph\\parametertree\\parameterTypes\\basetypes.py',
   'PYMODULE'),
  ('pyqtgraph.parametertree.parameterTypes.bool',
   'C:\\Program '
   'Files\\Python312\\Lib\\site-packages\\pyqtgraph\\parametertree\\parameterTypes\\bool.py',
   'PYMODULE'),
  ('pyqtgraph.parametertree.parameterTypes.calendar',
   'C:\\Program '
   'Files\\Python312\\Lib\\site-packages\\pyqtgraph\\parametertree\\parameterTypes\\calendar.py',
   'PYMODULE'),
  ('pyqtgraph.parametertree.parameterTypes.checklist',
   'C:\\Program '
   'Files\\Python312\\Lib\\site-packages\\pyqtgraph\\parametertree\\parameterTypes\\checklist.py',
   'PYMODULE'),
  ('pyqtgraph.parametertree.parameterTypes.color',
   'C:\\Program '
   'Files\\Python312\\Lib\\site-packages\\pyqtgraph\\parametertree\\parameterTypes\\color.py',
   'PYMODULE'),
  ('pyqtgraph.parametertree.parameterTypes.colormap',
   'C:\\Program '
   'Files\\Python312\\Lib\\site-packages\\pyqtgraph\\parametertree\\parameterTypes\\colormap.py',
   'PYMODULE'),
  ('pyqtgraph.parametertree.parameterTypes.colormaplut',
   'C:\\Program '
   'Files\\Python312\\Lib\\site-packages\\pyqtgraph\\parametertree\\parameterTypes\\colormaplut.py',
   'PYMODULE'),
  ('pyqtgraph.parametertree.parameterTypes.file',
   'C:\\Program '
   'Files\\Python312\\Lib\\site-packages\\pyqtgraph\\parametertree\\parameterTypes\\file.py',
   'PYMODULE'),
  ('pyqtgraph.parametertree.parameterTypes.font',
   'C:\\Program '
   'Files\\Python312\\Lib\\site-packages\\pyqtgraph\\parametertree\\parameterTypes\\font.py',
   'PYMODULE'),
  ('pyqtgraph.parametertree.parameterTypes.list',
   'C:\\Program '
   'Files\\Python312\\Lib\\site-packages\\pyqtgraph\\parametertree\\parameterTypes\\list.py',
   'PYMODULE'),
  ('pyqtgraph.parametertree.parameterTypes.numeric',
   'C:\\Program '
   'Files\\Python312\\Lib\\site-packages\\pyqtgraph\\parametertree\\parameterTypes\\numeric.py',
   'PYMODULE'),
  ('pyqtgraph.parametertree.parameterTypes.pen',
   'C:\\Program '
   'Files\\Python312\\Lib\\site-packages\\pyqtgraph\\parametertree\\parameterTypes\\pen.py',
   'PYMODULE'),
  ('pyqtgraph.parametertree.parameterTypes.progress',
   'C:\\Program '
   'Files\\Python312\\Lib\\site-packages\\pyqtgraph\\parametertree\\parameterTypes\\progress.py',
   'PYMODULE'),
  ('pyqtgraph.parametertree.parameterTypes.qtenum',
   'C:\\Program '
   'Files\\Python312\\Lib\\site-packages\\pyqtgraph\\parametertree\\parameterTypes\\qtenum.py',
   'PYMODULE'),
  ('pyqtgraph.parametertree.parameterTypes.slider',
   'C:\\Program '
   'Files\\Python312\\Lib\\site-packages\\pyqtgraph\\parametertree\\parameterTypes\\slider.py',
   'PYMODULE'),
  ('pyqtgraph.parametertree.parameterTypes.str',
   'C:\\Program '
   'Files\\Python312\\Lib\\site-packages\\pyqtgraph\\parametertree\\parameterTypes\\str.py',
   'PYMODULE'),
  ('pyqtgraph.parametertree.parameterTypes.text',
   'C:\\Program '
   'Files\\Python312\\Lib\\site-packages\\pyqtgraph\\parametertree\\parameterTypes\\text.py',
   'PYMODULE'),
  ('pyqtgraph.reload',
   'C:\\Program Files\\Python312\\Lib\\site-packages\\pyqtgraph\\reload.py',
   'PYMODULE'),
  ('pyqtgraph.units',
   'C:\\Program Files\\Python312\\Lib\\site-packages\\pyqtgraph\\units.py',
   'PYMODULE'),
  ('pyqtgraph.util',
   'C:\\Program '
   'Files\\Python312\\Lib\\site-packages\\pyqtgraph\\util\\__init__.py',
   'PYMODULE'),
  ('pyqtgraph.util.colorama',
   'C:\\Program '
   'Files\\Python312\\Lib\\site-packages\\pyqtgraph\\util\\colorama\\__init__.py',
   'PYMODULE'),
  ('pyqtgraph.util.colorama.win32',
   'C:\\Program '
   'Files\\Python312\\Lib\\site-packages\\pyqtgraph\\util\\colorama\\win32.py',
   'PYMODULE'),
  ('pyqtgraph.util.colorama.winterm',
   'C:\\Program '
   'Files\\Python312\\Lib\\site-packages\\pyqtgraph\\util\\colorama\\winterm.py',
   'PYMODULE'),
  ('pyqtgraph.util.cprint',
   'C:\\Program '
   'Files\\Python312\\Lib\\site-packages\\pyqtgraph\\util\\cprint.py',
   'PYMODULE'),
  ('pyqtgraph.util.cupy_helper',
   'C:\\Program '
   'Files\\Python312\\Lib\\site-packages\\pyqtgraph\\util\\cupy_helper.py',
   'PYMODULE'),
  ('pyqtgraph.util.mutex',
   'C:\\Program '
   'Files\\Python312\\Lib\\site-packages\\pyqtgraph\\util\\mutex.py',
   'PYMODULE'),
  ('pyqtgraph.util.numba_helper',
   'C:\\Program '
   'Files\\Python312\\Lib\\site-packages\\pyqtgraph\\util\\numba_helper.py',
   'PYMODULE'),
  ('pyqtgraph.widgets',
   'C:\\Program '
   'Files\\Python312\\Lib\\site-packages\\pyqtgraph\\widgets\\__init__.py',
   'PYMODULE'),
  ('pyqtgraph.widgets.BusyCursor',
   'C:\\Program '
   'Files\\Python312\\Lib\\site-packages\\pyqtgraph\\widgets\\BusyCursor.py',
   'PYMODULE'),
  ('pyqtgraph.widgets.CheckTable',
   'C:\\Program '
   'Files\\Python312\\Lib\\site-packages\\pyqtgraph\\widgets\\CheckTable.py',
   'PYMODULE'),
  ('pyqtgraph.widgets.ColorButton',
   'C:\\Program '
   'Files\\Python312\\Lib\\site-packages\\pyqtgraph\\widgets\\ColorButton.py',
   'PYMODULE'),
  ('pyqtgraph.widgets.ColorMapButton',
   'C:\\Program '
   'Files\\Python312\\Lib\\site-packages\\pyqtgraph\\widgets\\ColorMapButton.py',
   'PYMODULE'),
  ('pyqtgraph.widgets.ColorMapMenu',
   'C:\\Program '
   'Files\\Python312\\Lib\\site-packages\\pyqtgraph\\widgets\\ColorMapMenu.py',
   'PYMODULE'),
  ('pyqtgraph.widgets.ColorMapWidget',
   'C:\\Program '
   'Files\\Python312\\Lib\\site-packages\\pyqtgraph\\widgets\\ColorMapWidget.py',
   'PYMODULE'),
  ('pyqtgraph.widgets.ComboBox',
   'C:\\Program '
   'Files\\Python312\\Lib\\site-packages\\pyqtgraph\\widgets\\ComboBox.py',
   'PYMODULE'),
  ('pyqtgraph.widgets.DataFilterWidget',
   'C:\\Program '
   'Files\\Python312\\Lib\\site-packages\\pyqtgraph\\widgets\\DataFilterWidget.py',
   'PYMODULE'),
  ('pyqtgraph.widgets.DataTreeWidget',
   'C:\\Program '
   'Files\\Python312\\Lib\\site-packages\\pyqtgraph\\widgets\\DataTreeWidget.py',
   'PYMODULE'),
  ('pyqtgraph.widgets.DiffTreeWidget',
   'C:\\Program '
   'Files\\Python312\\Lib\\site-packages\\pyqtgraph\\widgets\\DiffTreeWidget.py',
   'PYMODULE'),
  ('pyqtgraph.widgets.FeedbackButton',
   'C:\\Program '
   'Files\\Python312\\Lib\\site-packages\\pyqtgraph\\widgets\\FeedbackButton.py',
   'PYMODULE'),
  ('pyqtgraph.widgets.FileDialog',
   'C:\\Program '
   'Files\\Python312\\Lib\\site-packages\\pyqtgraph\\widgets\\FileDialog.py',
   'PYMODULE'),
  ('pyqtgraph.widgets.GradientWidget',
   'C:\\Program '
   'Files\\Python312\\Lib\\site-packages\\pyqtgraph\\widgets\\GradientWidget.py',
   'PYMODULE'),
  ('pyqtgraph.widgets.GraphicsLayoutWidget',
   'C:\\Program '
   'Files\\Python312\\Lib\\site-packages\\pyqtgraph\\widgets\\GraphicsLayoutWidget.py',
   'PYMODULE'),
  ('pyqtgraph.widgets.GraphicsView',
   'C:\\Program '
   'Files\\Python312\\Lib\\site-packages\\pyqtgraph\\widgets\\GraphicsView.py',
   'PYMODULE'),
  ('pyqtgraph.widgets.GroupBox',
   'C:\\Program '
   'Files\\Python312\\Lib\\site-packages\\pyqtgraph\\widgets\\GroupBox.py',
   'PYMODULE'),
  ('pyqtgraph.widgets.HistogramLUTWidget',
   'C:\\Program '
   'Files\\Python312\\Lib\\site-packages\\pyqtgraph\\widgets\\HistogramLUTWidget.py',
   'PYMODULE'),
  ('pyqtgraph.widgets.JoystickButton',
   'C:\\Program '
   'Files\\Python312\\Lib\\site-packages\\pyqtgraph\\widgets\\JoystickButton.py',
   'PYMODULE'),
  ('pyqtgraph.widgets.LayoutWidget',
   'C:\\Program '
   'Files\\Python312\\Lib\\site-packages\\pyqtgraph\\widgets\\LayoutWidget.py',
   'PYMODULE'),
  ('pyqtgraph.widgets.MatplotlibWidget',
   'C:\\Program '
   'Files\\Python312\\Lib\\site-packages\\pyqtgraph\\widgets\\MatplotlibWidget.py',
   'PYMODULE'),
  ('pyqtgraph.widgets.MultiPlotWidget',
   'C:\\Program '
   'Files\\Python312\\Lib\\site-packages\\pyqtgraph\\widgets\\MultiPlotWidget.py',
   'PYMODULE'),
  ('pyqtgraph.widgets.PathButton',
   'C:\\Program '
   'Files\\Python312\\Lib\\site-packages\\pyqtgraph\\widgets\\PathButton.py',
   'PYMODULE'),
  ('pyqtgraph.widgets.PenPreviewLabel',
   'C:\\Program '
   'Files\\Python312\\Lib\\site-packages\\pyqtgraph\\widgets\\PenPreviewLabel.py',
   'PYMODULE'),
  ('pyqtgraph.widgets.PlotWidget',
   'C:\\Program '
   'Files\\Python312\\Lib\\site-packages\\pyqtgraph\\widgets\\PlotWidget.py',
   'PYMODULE'),
  ('pyqtgraph.widgets.ProgressDialog',
   'C:\\Program '
   'Files\\Python312\\Lib\\site-packages\\pyqtgraph\\widgets\\ProgressDialog.py',
   'PYMODULE'),
  ('pyqtgraph.widgets.RawImageWidget',
   'C:\\Program '
   'Files\\Python312\\Lib\\site-packages\\pyqtgraph\\widgets\\RawImageWidget.py',
   'PYMODULE'),
  ('pyqtgraph.widgets.RemoteGraphicsView',
   'C:\\Program '
   'Files\\Python312\\Lib\\site-packages\\pyqtgraph\\widgets\\RemoteGraphicsView.py',
   'PYMODULE'),
  ('pyqtgraph.widgets.ScatterPlotWidget',
   'C:\\Program '
   'Files\\Python312\\Lib\\site-packages\\pyqtgraph\\widgets\\ScatterPlotWidget.py',
   'PYMODULE'),
  ('pyqtgraph.widgets.SpinBox',
   'C:\\Program '
   'Files\\Python312\\Lib\\site-packages\\pyqtgraph\\widgets\\SpinBox.py',
   'PYMODULE'),
  ('pyqtgraph.widgets.TableWidget',
   'C:\\Program '
   'Files\\Python312\\Lib\\site-packages\\pyqtgraph\\widgets\\TableWidget.py',
   'PYMODULE'),
  ('pyqtgraph.widgets.TreeWidget',
   'C:\\Program '
   'Files\\Python312\\Lib\\site-packages\\pyqtgraph\\widgets\\TreeWidget.py',
   'PYMODULE'),
  ('pyqtgraph.widgets.ValueLabel',
   'C:\\Program '
   'Files\\Python312\\Lib\\site-packages\\pyqtgraph\\widgets\\ValueLabel.py',
   'PYMODULE'),
  ('pyqtgraph.widgets.VerticalLabel',
   'C:\\Program '
   'Files\\Python312\\Lib\\site-packages\\pyqtgraph\\widgets\\VerticalLabel.py',
   'PYMODULE'),
  ('queue', 'C:\\Program Files\\Python312\\Lib\\queue.py', 'PYMODULE'),
  ('quopri', 'C:\\Program Files\\Python312\\Lib\\quopri.py', 'PYMODULE'),
  ('random', 'C:\\Program Files\\Python312\\Lib\\random.py', 'PYMODULE'),
  ('runpy', 'C:\\Program Files\\Python312\\Lib\\runpy.py', 'PYMODULE'),
  ('secrets', 'C:\\Program Files\\Python312\\Lib\\secrets.py', 'PYMODULE'),
  ('selectors', 'C:\\Program Files\\Python312\\Lib\\selectors.py', 'PYMODULE'),
  ('serial',
   'C:\\Program Files\\Python312\\Lib\\site-packages\\serial\\__init__.py',
   'PYMODULE'),
  ('serial.serialcli',
   'C:\\Program Files\\Python312\\Lib\\site-packages\\serial\\serialcli.py',
   'PYMODULE'),
  ('serial.serialjava',
   'C:\\Program Files\\Python312\\Lib\\site-packages\\serial\\serialjava.py',
   'PYMODULE'),
  ('serial.serialposix',
   'C:\\Program Files\\Python312\\Lib\\site-packages\\serial\\serialposix.py',
   'PYMODULE'),
  ('serial.serialutil',
   'C:\\Program Files\\Python312\\Lib\\site-packages\\serial\\serialutil.py',
   'PYMODULE'),
  ('serial.serialwin32',
   'C:\\Program Files\\Python312\\Lib\\site-packages\\serial\\serialwin32.py',
   'PYMODULE'),
  ('serial.tools',
   'C:\\Program '
   'Files\\Python312\\Lib\\site-packages\\serial\\tools\\__init__.py',
   'PYMODULE'),
  ('serial.tools.list_ports',
   'C:\\Program '
   'Files\\Python312\\Lib\\site-packages\\serial\\tools\\list_ports.py',
   'PYMODULE'),
  ('serial.tools.list_ports_common',
   'C:\\Program '
   'Files\\Python312\\Lib\\site-packages\\serial\\tools\\list_ports_common.py',
   'PYMODULE'),
  ('serial.tools.list_ports_linux',
   'C:\\Program '
   'Files\\Python312\\Lib\\site-packages\\serial\\tools\\list_ports_linux.py',
   'PYMODULE'),
  ('serial.tools.list_ports_osx',
   'C:\\Program '
   'Files\\Python312\\Lib\\site-packages\\serial\\tools\\list_ports_osx.py',
   'PYMODULE'),
  ('serial.tools.list_ports_posix',
   'C:\\Program '
   'Files\\Python312\\Lib\\site-packages\\serial\\tools\\list_ports_posix.py',
   'PYMODULE'),
  ('serial.tools.list_ports_windows',
   'C:\\Program '
   'Files\\Python312\\Lib\\site-packages\\serial\\tools\\list_ports_windows.py',
   'PYMODULE'),
  ('serial.win32',
   'C:\\Program Files\\Python312\\Lib\\site-packages\\serial\\win32.py',
   'PYMODULE'),
  ('shlex', 'C:\\Program Files\\Python312\\Lib\\shlex.py', 'PYMODULE'),
  ('shutil', 'C:\\Program Files\\Python312\\Lib\\shutil.py', 'PYMODULE'),
  ('signal', 'C:\\Program Files\\Python312\\Lib\\signal.py', 'PYMODULE'),
  ('socket', 'C:\\Program Files\\Python312\\Lib\\socket.py', 'PYMODULE'),
  ('socketserver',
   'C:\\Program Files\\Python312\\Lib\\socketserver.py',
   'PYMODULE'),
  ('ssl', 'C:\\Program Files\\Python312\\Lib\\ssl.py', 'PYMODULE'),
  ('statistics',
   'C:\\Program Files\\Python312\\Lib\\statistics.py',
   'PYMODULE'),
  ('string', 'C:\\Program Files\\Python312\\Lib\\string.py', 'PYMODULE'),
  ('stringprep',
   'C:\\Program Files\\Python312\\Lib\\stringprep.py',
   'PYMODULE'),
  ('subprocess',
   'C:\\Program Files\\Python312\\Lib\\subprocess.py',
   'PYMODULE'),
  ('sysconfig', 'C:\\Program Files\\Python312\\Lib\\sysconfig.py', 'PYMODULE'),
  ('tarfile', 'C:\\Program Files\\Python312\\Lib\\tarfile.py', 'PYMODULE'),
  ('tempfile', 'C:\\Program Files\\Python312\\Lib\\tempfile.py', 'PYMODULE'),
  ('textwrap', 'C:\\Program Files\\Python312\\Lib\\textwrap.py', 'PYMODULE'),
  ('threading', 'C:\\Program Files\\Python312\\Lib\\threading.py', 'PYMODULE'),
  ('token', 'C:\\Program Files\\Python312\\Lib\\token.py', 'PYMODULE'),
  ('tokenize', 'C:\\Program Files\\Python312\\Lib\\tokenize.py', 'PYMODULE'),
  ('tracemalloc',
   'C:\\Program Files\\Python312\\Lib\\tracemalloc.py',
   'PYMODULE'),
  ('tty', 'C:\\Program Files\\Python312\\Lib\\tty.py', 'PYMODULE'),
  ('typing', 'C:\\Program Files\\Python312\\Lib\\typing.py', 'PYMODULE'),
  ('unittest',
   'C:\\Program Files\\Python312\\Lib\\unittest\\__init__.py',
   'PYMODULE'),
  ('unittest._log',
   'C:\\Program Files\\Python312\\Lib\\unittest\\_log.py',
   'PYMODULE'),
  ('unittest.async_case',
   'C:\\Program Files\\Python312\\Lib\\unittest\\async_case.py',
   'PYMODULE'),
  ('unittest.case',
   'C:\\Program Files\\Python312\\Lib\\unittest\\case.py',
   'PYMODULE'),
  ('unittest.loader',
   'C:\\Program Files\\Python312\\Lib\\unittest\\loader.py',
   'PYMODULE'),
  ('unittest.main',
   'C:\\Program Files\\Python312\\Lib\\unittest\\main.py',
   'PYMODULE'),
  ('unittest.result',
   'C:\\Program Files\\Python312\\Lib\\unittest\\result.py',
   'PYMODULE'),
  ('unittest.runner',
   'C:\\Program Files\\Python312\\Lib\\unittest\\runner.py',
   'PYMODULE'),
  ('unittest.signals',
   'C:\\Program Files\\Python312\\Lib\\unittest\\signals.py',
   'PYMODULE'),
  ('unittest.suite',
   'C:\\Program Files\\Python312\\Lib\\unittest\\suite.py',
   'PYMODULE'),
  ('unittest.util',
   'C:\\Program Files\\Python312\\Lib\\unittest\\util.py',
   'PYMODULE'),
  ('urllib',
   'C:\\Program Files\\Python312\\Lib\\urllib\\__init__.py',
   'PYMODULE'),
  ('urllib.error',
   'C:\\Program Files\\Python312\\Lib\\urllib\\error.py',
   'PYMODULE'),
  ('urllib.parse',
   'C:\\Program Files\\Python312\\Lib\\urllib\\parse.py',
   'PYMODULE'),
  ('urllib.request',
   'C:\\Program Files\\Python312\\Lib\\urllib\\request.py',
   'PYMODULE'),
  ('urllib.response',
   'C:\\Program Files\\Python312\\Lib\\urllib\\response.py',
   'PYMODULE'),
  ('webbrowser',
   'C:\\Program Files\\Python312\\Lib\\webbrowser.py',
   'PYMODULE'),
  ('xml', 'C:\\Program Files\\Python312\\Lib\\xml\\__init__.py', 'PYMODULE'),
  ('xml.dom',
   'C:\\Program Files\\Python312\\Lib\\xml\\dom\\__init__.py',
   'PYMODULE'),
  ('xml.dom.NodeFilter',
   'C:\\Program Files\\Python312\\Lib\\xml\\dom\\NodeFilter.py',
   'PYMODULE'),
  ('xml.dom.domreg',
   'C:\\Program Files\\Python312\\Lib\\xml\\dom\\domreg.py',
   'PYMODULE'),
  ('xml.dom.expatbuilder',
   'C:\\Program Files\\Python312\\Lib\\xml\\dom\\expatbuilder.py',
   'PYMODULE'),
  ('xml.dom.minicompat',
   'C:\\Program Files\\Python312\\Lib\\xml\\dom\\minicompat.py',
   'PYMODULE'),
  ('xml.dom.minidom',
   'C:\\Program Files\\Python312\\Lib\\xml\\dom\\minidom.py',
   'PYMODULE'),
  ('xml.dom.pulldom',
   'C:\\Program Files\\Python312\\Lib\\xml\\dom\\pulldom.py',
   'PYMODULE'),
  ('xml.dom.xmlbuilder',
   'C:\\Program Files\\Python312\\Lib\\xml\\dom\\xmlbuilder.py',
   'PYMODULE'),
  ('xml.etree',
   'C:\\Program Files\\Python312\\Lib\\xml\\etree\\__init__.py',
   'PYMODULE'),
  ('xml.etree.ElementInclude',
   'C:\\Program Files\\Python312\\Lib\\xml\\etree\\ElementInclude.py',
   'PYMODULE'),
  ('xml.etree.ElementPath',
   'C:\\Program Files\\Python312\\Lib\\xml\\etree\\ElementPath.py',
   'PYMODULE'),
  ('xml.etree.ElementTree',
   'C:\\Program Files\\Python312\\Lib\\xml\\etree\\ElementTree.py',
   'PYMODULE'),
  ('xml.etree.cElementTree',
   'C:\\Program Files\\Python312\\Lib\\xml\\etree\\cElementTree.py',
   'PYMODULE'),
  ('xml.parsers',
   'C:\\Program Files\\Python312\\Lib\\xml\\parsers\\__init__.py',
   'PYMODULE'),
  ('xml.parsers.expat',
   'C:\\Program Files\\Python312\\Lib\\xml\\parsers\\expat.py',
   'PYMODULE'),
  ('xml.sax',
   'C:\\Program Files\\Python312\\Lib\\xml\\sax\\__init__.py',
   'PYMODULE'),
  ('xml.sax._exceptions',
   'C:\\Program Files\\Python312\\Lib\\xml\\sax\\_exceptions.py',
   'PYMODULE'),
  ('xml.sax.expatreader',
   'C:\\Program Files\\Python312\\Lib\\xml\\sax\\expatreader.py',
   'PYMODULE'),
  ('xml.sax.handler',
   'C:\\Program Files\\Python312\\Lib\\xml\\sax\\handler.py',
   'PYMODULE'),
  ('xml.sax.saxutils',
   'C:\\Program Files\\Python312\\Lib\\xml\\sax\\saxutils.py',
   'PYMODULE'),
  ('xml.sax.xmlreader',
   'C:\\Program Files\\Python312\\Lib\\xml\\sax\\xmlreader.py',
   'PYMODULE'),
  ('xmlrpc',
   'C:\\Program Files\\Python312\\Lib\\xmlrpc\\__init__.py',
   'PYMODULE'),
  ('xmlrpc.client',
   'C:\\Program Files\\Python312\\Lib\\xmlrpc\\client.py',
   'PYMODULE'),
  ('zipfile',
   'C:\\Program Files\\Python312\\Lib\\zipfile\\__init__.py',
   'PYMODULE'),
  ('zipfile._path',
   'C:\\Program Files\\Python312\\Lib\\zipfile\\_path\\__init__.py',
   'PYMODULE'),
  ('zipfile._path.glob',
   'C:\\Program Files\\Python312\\Lib\\zipfile\\_path\\glob.py',
   'PYMODULE'),
  ('zipimport', 'C:\\Program Files\\Python312\\Lib\\zipimport.py', 'PYMODULE')])
